<?xml version="1.0" standalone="no"?>
<!DOCTYPE svg PUBLIC "-//W3C//DTD SVG 1.1//EN" "http://www.w3.org/Graphics/SVG/1.1/DTD/svg11.dtd" >
<svg xmlns="http://www.w3.org/2000/svg">
<metadata>Generated by IcoMoon</metadata>
<defs>
<font id="icomoon" horiz-adv-x="1024">
<font-face units-per-em="1024" ascent="960" descent="-64" />
<missing-glyph horiz-adv-x="1024" />
<glyph unicode="&#x20;" horiz-adv-x="512" d="" />
<glyph unicode="&#xe286;" glyph-name="dashboard" d="M554 819.809h342v-256h-342v256zM554 51.809v426h342v-426h-342zM128 51.809v256h342v-256h-342zM128 393.809v426h342v-426h-342z" />
<glyph unicode="&#xe600;" glyph-name="columns" horiz-adv-x="952" d="M91.43 82.287h347.428v658.286h-365.714v-640q0-7.428 5.43-12.856t12.856-5.428zM877.714 100.571v640h-365.714v-658.286h347.428q7.428 0 12.856 5.428t5.428 12.856zM950.856 795.429v-694.856q0-37.714-26.856-64.572t-64.572-26.856h-768q-37.714 0-64.57 26.856t-26.856 64.572v694.856q0 37.714 26.856 64.572t64.57 26.856h768q37.714 0 64.572-26.856t26.856-64.572z" />
<glyph unicode="&#xe601;" glyph-name="file-alt" horiz-adv-x="732" d="M585.144 283.429v-36.572q0-8-5.144-13.144t-13.144-5.144h-402.286q-8 0-13.144 5.144t-5.144 13.144v36.572q0 8 5.144 13.144t13.144 5.144h402.286q8 0 13.144-5.144t5.144-13.144zM585.144 429.715v-36.572q0-8-5.144-13.144t-13.144-5.144h-402.286q-8 0-13.144 5.144t-5.144 13.144v36.572q0 8 5.144 13.144t13.144 5.142h402.286q8 0 13.144-5.142t5.144-13.144zM73.144 82.287h585.144v438.856h-237.714q-22.858 0-38.858 16t-16 38.858v237.714h-292.572v-731.428zM438.858 594.287h214.858q-5.714 16.572-12.572 23.428l-178.856 178.856q-6.858 6.858-23.428 12.572v-214.856zM731.428 576.001v-512q0-22.856-16-38.856t-38.856-16h-621.714q-22.856 0-38.856 16t-16 38.856v768q0 22.856 16 38.856t38.856 16h365.714q22.858 0 50.286-11.428t43.428-27.428l178.286-178.286q16-16 27.428-43.428t11.428-50.286z" />
<glyph unicode="&#xe602;" glyph-name="copy" d="M969.144 740.571q22.856 0 38.856-16t16-38.856v-694.856q0-22.856-16-38.856t-38.856-16h-548.572q-22.856 0-38.856 16t-16 38.856v164.572h-310.858q-22.856 0-38.856 16t-16 38.856v384q0 22.856 11.43 50.286t27.428 43.43l233.144 233.144q16 16 43.43 27.428t50.286 11.428h237.714q22.856 0 38.856-16t16-38.856v-187.43q38.856 22.858 73.144 22.858h237.714zM658.286 618.857l-170.856-170.856h170.856v170.856zM292.572 838.287l-170.856-170.856h170.856v170.856zM404.572 468.571l180.572 180.572v237.714h-219.428v-237.714q0-22.856-16-38.856t-38.856-16h-237.714v-365.714h292.572v146.286q0 22.856 11.428 50.286t27.428 43.428zM950.856 9.143v658.286h-219.428v-237.714q0-22.856-16-38.856t-38.856-16h-237.714v-365.714h512z" />
<glyph unicode="&#xe603;" glyph-name="exclamation-sign" horiz-adv-x="878" d="M438.858 886.857q119.43 0 220.286-58.856t159.714-159.714 58.856-220.286-58.856-220.286-159.714-159.714-220.286-58.856-220.286 58.856-159.714 159.714-58.856 220.286 58.856 220.286 159.714 159.714 220.286 58.856zM512 174.287v108.572q0 8-5.142 13.428t-12.572 5.428h-109.714q-7.428 0-13.144-5.714t-5.714-13.144v-108.572q0-7.428 5.714-13.144t13.144-5.714h109.714q7.428 0 12.572 5.428t5.142 13.428zM510.858 370.857l10.286 354.856q0 6.856-5.714 10.286-5.714 4.57-13.714 4.57h-125.714q-8 0-13.714-4.57-5.714-3.43-5.714-10.286l9.714-354.856q0-5.714 5.714-10t13.714-4.286h105.714q8 0 13.428 4.286t6 10z" />
<glyph unicode="&#xe604;" glyph-name="blog" horiz-adv-x="952" d="M936.572 686.857q22.856-32.57 10.286-73.714l-157.144-517.714q-10.856-36.572-43.714-61.428t-70-24.856h-527.428q-44 0-84.856 30.572t-56.856 75.144q-13.714 38.286-1.142 72.572 0 2.286 1.714 15.428t2.286 21.144q0.57 4.572-1.714 12.286t-1.714 11.144q1.142 6.286 4.57 12t9.43 13.428 9.428 13.428q13.144 21.714 25.714 52.286t17.144 52.286q1.714 5.714 0.286 17.144t-0.286 16q1.714 6.286 9.714 16t9.714 13.144q12 20.572 24 52.572t14.286 51.428q0.57 5.142-1.43 18.286t0.286 16q2.286 7.428 12.57 17.428t12.57 12.858q10.856 14.856 24.286 48.286t15.714 55.144q0.57 4.572-1.714 14.572t-1.144 15.142q1.144 4.572 5.144 10.286t10.286 13.144 9.714 12q4.57 6.856 9.43 17.428t8.57 20 9.144 20.572 11.144 18.286 15.142 13.428 20.572 6.572 27.144-3.142l-0.572-1.714q21.714 5.144 29.144 5.144h434.856q42.286 0 65.144-32t10.286-74.286l-156.572-517.714q-20.572-68-40.856-87.714t-73.428-19.714h-496.572q-15.43 0-21.714-8.572-6.286-9.144-0.57-24.572 13.714-40 82.286-40h527.428q16.572 0 32 8.856t20 23.714l171.428 564q4 12.572 2.856 32.57 21.714-8.57 33.714-24.57zM328.572 685.715q-2.286-7.428 1.142-12.856t11.428-5.428h347.428q7.428 0 14.572 5.428t9.428 12.856l12 36.57q2.286 7.43-1.144 12.858t-11.428 5.428h-347.428q-7.428 0-14.572-5.428t-9.428-12.858zM281.142 539.429q-2.286-7.428 1.142-12.856t11.428-5.428h347.428q7.428 0 14.572 5.428t9.428 12.856l12 36.572q2.286 7.428-1.144 12.856t-11.428 5.428h-347.428q-7.428 0-14.572-5.428t-9.428-12.856z" />
<glyph unicode="&#xe605;" glyph-name="check-empty" horiz-adv-x="806" d="M640 813.715h-475.428q-37.714 0-64.57-26.856t-26.856-64.572v-475.428q0-37.714 26.856-64.572t64.57-26.856h475.428q37.714 0 64.572 26.856t26.856 64.572v475.428q0 37.714-26.856 64.572t-64.572 26.856zM804.572 722.287v-475.428q0-68-48.286-116.286t-116.286-48.286h-475.428q-68 0-116.286 48.286t-48.286 116.286v475.428q0 68 48.286 116.286t116.286 48.286h475.428q68 0 116.286-48.286t48.286-116.286z" />
<glyph unicode="&#xe606;" glyph-name="list-ul" d="M219.43 155.429q0-45.714-32-77.714t-77.714-32-77.714 32-32 77.714 32 77.714 77.714 32 77.714-32 32-77.714zM219.43 448.001q0-45.714-32-77.714t-77.714-32-77.714 32-32 77.714 32 77.714 77.714 32 77.714-32 32-77.714zM1024 210.287v-109.714q0-7.428-5.428-12.856t-12.856-5.428h-694.856q-7.428 0-12.856 5.428t-5.428 12.856v109.714q0 7.428 5.428 12.856t12.856 5.428h694.856q7.428 0 12.856-5.428t5.428-12.856zM219.43 740.571q0-45.714-32-77.714t-77.714-32-77.714 32-32 77.714 32 77.714 77.714 32 77.714-32 32-77.714zM1024 502.857v-109.714q0-7.428-5.428-12.856t-12.856-5.428h-694.856q-7.428 0-12.856 5.428t-5.428 12.856v109.714q0 7.428 5.428 12.858t12.856 5.428h694.856q7.428 0 12.856-5.428t5.428-12.856zM1024 795.429v-109.714q0-7.428-5.428-12.856t-12.856-5.428h-694.856q-7.428 0-12.856 5.428t-5.428 12.856v109.714q0 7.428 5.428 12.858t12.856 5.428h694.856q7.428 0 12.856-5.428t5.428-12.858z" />
<glyph unicode="&#xe607;" glyph-name="youtube" d="M832 832.001h-640c-105.6 0-192-86.4-192-192v-384c0-105.6 86.4-192 192-192h640c105.6 0 192 86.4 192 192v384c0 105.6-86.4 192-192 192zM384 192.001v512l320-256-320-256z" />
<glyph unicode="&#xe608;" glyph-name="flag" d="M182.856 813.715q0-41.144-36.57-62.856v-723.428q0-7.428-5.43-12.856t-12.856-5.428h-36.57q-7.43 0-12.856 5.428t-5.43 12.856v723.428q-36.57 21.714-36.57 62.856 0 30.286 21.43 51.714t51.714 21.43 51.714-21.43 21.43-51.714zM1024 777.143v-436q0-14.286-7.144-22t-22.572-15.714q-122.856-66.286-210.856-66.286-34.856 0-70.572 12.572t-62 27.428-66 27.428-81.428 12.572q-109.714 0-265.142-83.428-9.714-5.144-18.856-5.144-14.856 0-25.714 10.856t-10.856 25.714v424q0 18.286 17.714 31.428 12 8 45.144 24.572 134.856 68.57 240.57 68.57 61.142 0 114.286-16.57t125.144-50.286q21.714-10.856 50.286-10.856 30.856 0 67.144 12t62.856 26.856 50.286 26.856 31.144 12q14.856 0 25.714-10.856t10.856-25.714z" />
<glyph unicode="&#xe609;" glyph-name="dollar" horiz-adv-x="586" d="M558.856 282.857q0-87.428-56.856-150.572t-147.714-78v-100q0-8-5.142-13.144t-13.144-5.142h-77.144q-7.43 0-12.856 5.428t-5.43 12.858v100q-37.714 5.144-72.856 17.714t-58 25.428-42.286 27.428-26.57 21.428-10 10.286q-9.714 12-1.144 23.428l58.856 77.144q4 5.714 13.144 6.856 8.57 1.144 13.714-5.144l1.144-1.144q64.57-56.572 138.856-71.428 21.144-4.572 42.286-4.572 46.286 0 81.428 24.572t35.144 69.714q0 16-8.572 30.286t-19.144 24-33.428 21.428-37.714 18.286-45.714 18.572q-22.286 9.144-35.144 14.286t-35.144 15.144-35.714 17.714-32.286 20.286-30.57 24.286-24.856 28-20.286 33.144-12 38-4.856 44.572q0 78.856 56 138.286t145.714 76.572v102.856q0 7.43 5.43 12.856t12.858 5.43h77.144q8 0 13.144-5.144t5.142-13.144v-100.57q32.57-3.43 63.142-13.144t49.714-19.144 36.286-21.428 22.286-16.572 8.572-8q9.714-10.286 2.856-21.714l-46.286-83.43q-4.572-8.572-13.142-9.142-8-1.714-15.428 4-1.714 1.714-8.286 6.856t-22.286 15.144-33.428 18.286-42.572 14.856-48.856 6.572q-54.286 0-88.57-24.572t-34.286-63.428q0-14.856 4.856-27.428t16.856-23.714 22.57-18.856 32-17.714 34.572-15.428 40-15.714q30.286-11.428 46.286-18t43.43-20 43.144-24.286 35.428-28.572 30.286-36.286 18-43.714 7.428-53.714z" />
<glyph unicode="&#xe60a;" glyph-name="tasks" d="M585.144 155.429h365.714v73.144h-365.714v-73.144zM365.714 448.001h585.144v73.144h-585.144v-73.144zM731.428 740.571h219.428v73.144h-219.428v-73.144zM1024 265.143v-146.286q0-14.856-10.856-25.714t-25.714-10.856h-950.856q-14.856 0-25.714 10.856t-10.856 25.714v146.286q0 14.856 10.856 25.714t25.714 10.856h950.856q14.856 0 25.714-10.856t10.856-25.714zM1024 557.715v-146.286q0-14.856-10.856-25.714t-25.714-10.856h-950.856q-14.856 0-25.714 10.856t-10.856 25.714v146.286q0 14.858 10.856 25.714t25.714 10.856h950.856q14.856 0 25.714-10.856t10.856-25.714zM1024 850.287v-146.286q0-14.856-10.856-25.714t-25.714-10.856h-950.856q-14.856 0-25.714 10.856t-10.856 25.714v146.286q0 14.856 10.856 25.714t25.714 10.858h950.856q14.856 0 25.714-10.858t10.856-25.714z" />
<glyph unicode="&#xe60b;" glyph-name="table" horiz-adv-x="952" d="M292.572 173.715v109.714q0 8-5.142 13.144t-13.142 5.144h-182.856q-8 0-13.144-5.144t-5.144-13.144v-109.714q0-8 5.144-13.144t13.144-5.144h182.856q8 0 13.144 5.144t5.142 13.144zM292.572 393.143v109.714q0 8-5.142 13.144t-13.142 5.142h-182.856q-8 0-13.144-5.142t-5.144-13.144v-109.714q0-8 5.144-13.144t13.144-5.144h182.856q8 0 13.144 5.144t5.142 13.144zM585.144 173.715v109.714q0 8-5.144 13.144t-13.144 5.144h-182.856q-8 0-13.144-5.144t-5.142-13.144v-109.714q0-8 5.142-13.144t13.144-5.144h182.856q8 0 13.144 5.144t5.144 13.144zM292.572 612.571v109.714q0 8-5.142 13.144t-13.142 5.144h-182.856q-8 0-13.144-5.144t-5.144-13.144v-109.714q0-8 5.144-13.144t13.144-5.144h182.856q8 0 13.144 5.144t5.142 13.144zM585.144 393.143v109.714q0 8-5.144 13.144t-13.144 5.142h-182.856q-8 0-13.144-5.142t-5.142-13.144v-109.714q0-8 5.142-13.144t13.144-5.144h182.856q8 0 13.144 5.144t5.144 13.144zM877.714 173.715v109.714q0 8-5.144 13.144t-13.144 5.144h-182.856q-8 0-13.144-5.144t-5.144-13.144v-109.714q0-8 5.144-13.144t13.144-5.144h182.856q8 0 13.144 5.144t5.144 13.144zM585.144 612.571v109.714q0 8-5.144 13.144t-13.144 5.144h-182.856q-8 0-13.144-5.144t-5.142-13.144v-109.714q0-8 5.142-13.144t13.144-5.144h182.856q8 0 13.144 5.144t5.144 13.144zM877.714 393.143v109.714q0 8-5.144 13.144t-13.144 5.142h-182.856q-8 0-13.144-5.142t-5.144-13.144v-109.714q0-8 5.144-13.144t13.144-5.144h182.856q8 0 13.144 5.144t5.144 13.144zM877.714 612.571v109.714q0 8-5.144 13.144t-13.144 5.144h-182.856q-8 0-13.144-5.144t-5.144-13.144v-109.714q0-8 5.144-13.144t13.144-5.144h182.856q8 0 13.144 5.144t5.144 13.144zM950.856 795.429v-621.714q0-37.714-26.856-64.572t-64.572-26.856h-768q-37.714 0-64.57 26.856t-26.856 64.572v621.714q0 37.714 26.856 64.572t64.57 26.856h768q37.714 0 64.572-26.856t26.856-64.572z" />
<glyph unicode="&#xe60c;" glyph-name="list-alt" d="M219.43 283.429v-36.572q0-7.428-5.43-12.856t-12.856-5.428h-36.57q-7.43 0-12.856 5.428t-5.43 12.856v36.572q0 7.428 5.43 12.856t12.856 5.428h36.57q7.43 0 12.856-5.428t5.43-12.856zM219.43 429.715v-36.572q0-7.428-5.43-12.856t-12.856-5.428h-36.57q-7.43 0-12.856 5.428t-5.43 12.856v36.572q0 7.428 5.43 12.856t12.856 5.428h36.57q7.43 0 12.856-5.428t5.43-12.856zM219.43 576.001v-36.572q0-7.428-5.43-12.856t-12.856-5.428h-36.57q-7.43 0-12.856 5.428t-5.43 12.856v36.572q0 7.428 5.43 12.856t12.856 5.428h36.57q7.43 0 12.856-5.428t5.43-12.856zM877.714 283.429v-36.572q0-7.428-5.428-12.856t-12.856-5.428h-548.572q-7.428 0-12.856 5.428t-5.428 12.856v36.572q0 7.428 5.428 12.856t12.856 5.428h548.572q7.428 0 12.856-5.428t5.428-12.856zM877.714 429.715v-36.572q0-7.428-5.428-12.856t-12.856-5.428h-548.572q-7.428 0-12.856 5.428t-5.428 12.856v36.572q0 7.428 5.428 12.856t12.856 5.428h548.572q7.428 0 12.856-5.428t5.428-12.856zM877.714 576.001v-36.572q0-7.428-5.428-12.856t-12.856-5.428h-548.572q-7.428 0-12.856 5.428t-5.428 12.856v36.572q0 7.428 5.428 12.856t12.856 5.428h548.572q7.428 0 12.856-5.428t5.428-12.856zM950.856 173.715v475.428q0 7.428-5.428 12.856t-12.856 5.428h-841.144q-7.43 0-12.856-5.428t-5.43-12.856v-475.428q0-7.428 5.43-12.856t12.856-5.428h841.144q7.428 0 12.856 5.428t5.428 12.856zM1024 795.429v-621.714q0-37.714-26.856-64.572t-64.572-26.856h-841.144q-37.714 0-64.57 26.856t-26.856 64.572v621.714q0 37.714 26.856 64.572t64.57 26.856h841.144q37.714 0 64.572-26.856t26.856-64.572z" />
<glyph unicode="&#xe60d;" glyph-name="expand-alt" horiz-adv-x="658" d="M512 429.715v-36.572q0-8-5.142-13.144t-13.142-5.144h-128v-128q0-8-5.142-13.144t-13.142-5.144h-36.572q-8 0-13.144 5.144t-5.142 13.144v128h-128q-8 0-13.144 5.144t-5.144 13.144v36.572q0 8 5.144 13.144t13.144 5.142h128v128q0 8 5.142 13.144t13.144 5.142h36.572q8 0 13.144-5.142t5.142-13.144v-128h128q8 0 13.142-5.144t5.144-13.144zM585.144 210.287v402.286q0 22.858-16 38.858t-38.856 16h-402.286q-22.856 0-38.856-16t-16-38.856v-402.286q0-22.856 16-38.856t38.856-16h402.286q22.856 0 38.856 16t16 38.856zM658.286 612.571v-402.286q0-52.572-37.428-90.286t-90.572-37.714h-402.286q-53.144 0-90.57 37.714t-37.43 90.286v402.286q0 53.144 37.43 90.572t90.57 37.428h402.286q53.144 0 90.572-37.428t37.428-90.572z" />
<glyph unicode="&#xe60e;" glyph-name="hand-up" horiz-adv-x="878" d="M731.428 45.715q0 14.856-10.856 25.714t-25.714 10.856-25.714-10.856-10.856-25.714 10.856-25.714 25.714-10.856 25.714 10.856 10.856 25.714zM804.572 482.287q0 108-95.428 108-14.856 0-32-2.856-9.144 17.144-30 27.144t-42 10-39.428-10.286q-28.572 30.286-68 30.286-14.286 0-31.714-5.714t-27.142-14.286v189.142q0 29.714-21.714 51.43t-51.43 21.714q-29.144 0-51.144-22.286t-22-50.858v-329.142q-11.428 0-27.714 8.572t-31.43 18.856-38.856 18.856-48.286 8.572q-38.286 0-55.714-25.428t-17.43-66q0-13.714 79.43-51.428 25.144-13.714 37.144-21.144 36.57-22.856 82.856-64 46.286-40.572 60.572-57.714 32.572-39.428 32.572-80v-18.286h365.714v18.286q0 41.144 18.286 95.428t36.572 110.572 18.286 102.572zM877.714 485.143q0-76-39.428-184-33.714-93.714-33.714-127.428v-164.572q0-30.286-21.428-51.714t-51.714-21.43h-365.714q-30.286 0-51.714 21.43t-21.428 51.714v164.572q0 5.714-2.572 12.286t-8 13.428-10.286 12.856-12.858 13.714-12.286 11.714-12.286 10.856-9.714 8q-42.286 37.144-73.714 57.144-12 7.428-35.43 18.856t-41.144 21.144-36 23.144-28.286 31.428-10 39.714q0 71.43 38.286 118t108 46.572q38.856 0 73.144-12.572v213.714q0 59.43 43.43 102.856t102.286 43.43q60 0 103.43-43.144t43.428-103.144v-96.57q35.428-2.286 68-21.144 12 1.714 24.572 1.714 57.714 0 101.714-34.286 79.428 0.572 125.428-48.572t46-129.714z" />
<glyph unicode="&#xe60f;" glyph-name="film" horiz-adv-x="1098" d="M219.43 45.715v73.144q0 14.856-10.856 25.714t-25.714 10.856h-73.144q-14.856 0-25.714-10.856t-10.856-25.714v-73.144q0-14.856 10.856-25.714t25.714-10.856h73.144q14.856 0 25.714 10.856t10.856 25.714zM219.43 265.143v73.144q0 14.856-10.856 25.714t-25.714 10.856h-73.144q-14.856 0-25.714-10.856t-10.856-25.714v-73.144q0-14.856 10.856-25.714t25.714-10.856h73.144q14.856 0 25.714 10.856t10.856 25.714zM219.43 484.571v73.144q0 14.856-10.856 25.714t-25.714 10.858h-73.144q-14.856 0-25.714-10.856t-10.856-25.714v-73.142q0-14.856 10.856-25.714t25.714-10.856h73.144q14.856 0 25.714 10.856t10.856 25.714zM804.572 45.715v292.572q0 14.856-10.856 25.714t-25.714 10.856h-438.858q-14.858 0-25.714-10.856t-10.856-25.714v-292.572q0-14.856 10.856-25.714t25.714-10.856h438.858q14.856 0 25.714 10.856t10.856 25.714zM219.43 704.001v73.144q0 14.856-10.856 25.714t-25.714 10.856h-73.144q-14.856 0-25.714-10.856t-10.856-25.714v-73.144q0-14.856 10.856-25.714t25.714-10.856h73.144q14.856 0 25.714 10.856t10.856 25.714zM1024 45.715v73.144q0 14.856-10.856 25.714t-25.714 10.856h-73.144q-14.856 0-25.714-10.856t-10.856-25.714v-73.144q0-14.856 10.856-25.714t25.714-10.856h73.144q14.856 0 25.714 10.856t10.856 25.714zM804.572 484.571v292.572q0 14.856-10.856 25.714t-25.714 10.856h-438.858q-14.858 0-25.714-10.856t-10.856-25.714v-292.572q0-14.856 10.856-25.714t25.714-10.856h438.858q14.856 0 25.714 10.856t10.856 25.714zM1024 265.143v73.144q0 14.856-10.856 25.714t-25.714 10.856h-73.144q-14.856 0-25.714-10.856t-10.856-25.714v-73.144q0-14.856 10.856-25.714t25.714-10.856h73.144q14.856 0 25.714 10.856t10.856 25.714zM1024 484.571v73.144q0 14.856-10.856 25.714t-25.714 10.858h-73.144q-14.856 0-25.714-10.856t-10.856-25.714v-73.142q0-14.856 10.856-25.714t25.714-10.856h73.144q14.856 0 25.714 10.856t10.856 25.714zM1024 704.001v73.144q0 14.856-10.856 25.714t-25.714 10.856h-73.144q-14.856 0-25.714-10.856t-10.856-25.714v-73.144q0-14.856 10.856-25.714t25.714-10.856h73.144q14.856 0 25.714 10.856t10.856 25.714zM1097.144 795.429v-768q0-37.714-26.856-64.572t-64.572-26.856h-914.286q-37.714 0-64.57 26.856t-26.856 64.572v768q0 37.714 26.856 64.572t64.57 26.856h914.286q37.714 0 64.572-26.856t26.856-64.572z" />
<glyph unicode="&#xe610;" glyph-name="star-empty" horiz-adv-x="952" d="M649.714 386.287l174.856 169.714-241.144 35.43-108 218.286-108-218.286-241.144-35.428 174.856-169.714-41.714-240.572 216 113.714 215.428-113.714zM950.856 590.287q0-12.572-14.856-27.428l-207.428-202.286 49.144-285.714q0.572-4 0.572-11.428 0-28.572-23.428-28.572-10.856 0-22.856 6.856l-256.572 134.856-256.572-134.856q-12.57-6.856-22.856-6.856-12 0-18 8.286t-6 20.286q0 3.428 1.144 11.428l49.144 285.714-208 202.286q-14.286 15.428-14.286 27.428 0 21.144 32 26.286l286.856 41.714 128.572 260q10.856 23.428 28 23.428t28-23.428l128.572-260 286.858-41.714q32-5.144 32-26.286z" />
<glyph unicode="&#xe611;" glyph-name="shopping-cart" horiz-adv-x="952" d="M365.714 82.287q0-30.286-21.428-51.714t-51.714-21.428-51.714 21.428-21.43 51.714 21.43 51.714 51.714 21.428 51.714-21.428 21.428-51.714zM877.714 82.287q0-30.286-21.428-51.714t-51.714-21.428-51.714 21.428-21.428 51.714 21.428 51.714 51.714 21.428 51.714-21.428 21.428-51.714zM950.856 704.001v-292.572q0-13.714-9.144-24.286t-23.428-12.286l-596.572-69.714q0.572-4 2.572-12.286t3.428-15.144 1.428-12.572q0-9.144-13.714-36.572h525.714q14.856 0 25.714-10.856t10.856-25.714-10.856-25.714-25.714-10.856h-585.144q-14.856 0-25.714 10.856t-10.856 25.714q0 8 6.286 22.572t16.856 34 11.714 21.714l-101.144 470.286h-116.57q-14.856 0-25.714 10.858t-10.856 25.714 10.856 25.714 25.714 10.858h146.286q9.144 0 16.286-3.714t11.43-8.856 7.43-14 4.286-15.144 3.144-16.856 2.57-14.572h686.286q14.856 0 25.714-10.856t10.856-25.714z" />
<glyph unicode="&#xe612;" glyph-name="users" d="M1024-2.559c0 0-1.996 193.894-13.876 213.966-17.664 29.952-58.674 50.482-134.86 82.33-75.93 31.744-100.25 58.572-100.25 115.866 0 34.458 23.194 23.194 33.382 86.222 4.198 26.164 24.678 0.462 28.62 60.108 0 23.808-11.162 29.748-11.162 29.748s5.632 35.226 7.884 62.31c2.764 33.792-17.050 120.986-122.47 120.986s-125.134-87.246-122.418-120.986c2.202-27.084 7.834-62.31 7.834-62.31s-11.162-5.94-11.162-29.748c3.942-59.698 24.422-33.996 28.672-60.108 10.138-63.028 33.332-51.764 33.332-86.222 0-38.962-11.264-63.846-42.342-85.71 165.888-83.046 188.16-99.994 188.16-174.234v-152.218h230.656zM523.47 264.961c-101.324 42.29-133.632 78.028-133.632 154.47 0 45.876 30.926 30.924 44.492 114.996 5.582 34.866 32.974 0.562 38.144 80.128 0 31.744-14.9 39.63-14.9 39.63s7.578 46.95 10.548 83.098c3.686 44.954-22.734 161.28-163.276 161.28s-166.912-116.274-163.226-161.28c2.97-36.148 10.496-83.098 10.496-83.098s-14.848-7.884-14.848-39.63c5.274-79.616 32.564-45.312 38.194-80.128 13.568-84.070 44.492-69.070 44.492-114.996 0-76.442-32.41-112.178-133.632-154.47-30.874-12.902-86.322-32.922-86.322-80.948v-186.572h711.374c0 0 0 110.336 0 139.826 0 43.878-86.374 85.198-187.904 127.692z" />
<glyph unicode="&#xe613;" glyph-name="newspaper" d="M819.2 908.801h-614.4c-56.32 0-102.4-46.080-102.4-102.4v-716.8c0-56.32 46.080-102.4 102.4-102.4h614.4c56.37 0 102.4 46.080 102.4 102.4v716.8c0 56.32-46.028 102.4-102.4 102.4zM819.2 89.601h-614.4v716.8h614.4v-716.8zM563.2 345.601h-256v-51.2h256v51.2zM716.8 550.401h-204.8v-51.2h204.8v51.2zM512 601.601h204.8v102.4h-204.8v-102.4zM460.8 704.001h-153.6v-204.8h153.6v204.8zM409.6 448.001h-102.4v-51.2h102.4v51.2zM460.8 396.801h256v51.2h-256v-51.2zM716.8 243.201h-409.6v-51.2h409.6v51.2zM614.4 294.401h102.4v51.2h-102.4v-51.2z" />
<glyph unicode="&#xe614;" glyph-name="clock" d="M512 919.041c-260.146 0-471.040-210.944-471.040-471.040 0-260.146 210.894-471.040 471.040-471.040s471.040 210.894 471.040 471.040c0 260.148-210.894 471.040-471.040 471.040zM512 79.361c-203.622 0-368.64 165.068-368.64 368.64s165.018 368.64 368.64 368.64 368.64-165.068 368.64-368.64-165.018-368.64-368.64-368.64zM547.84 714.241h-71.68v-281.088l174.336-174.336 50.688 50.688-153.344 153.344z" />
<glyph unicode="&#xe615;" glyph-name="browser" d="M921.6 857.601h-819.2c-56.32 0-102.4-46.080-102.4-102.4v-614.4c0-56.37 46.080-102.4 102.4-102.4h819.2c56.32 0 102.4 46.028 102.4 102.4v614.4c0 56.32-46.080 102.4-102.4 102.4zM235.52 761.857c21.248 0 38.4-16.692 38.4-37.326 0-20.684-17.152-37.376-38.4-37.376s-38.4 16.692-38.4 37.326c0 20.684 17.204 37.376 38.4 37.376zM94.72 724.481c0 20.634 17.152 37.324 38.4 37.324s38.4-16.64 38.4-37.324c0-20.686-17.152-37.376-38.4-37.376s-38.4 16.742-38.4 37.376zM922.624 140.801h-821.248v471.040h821.248v-471.040zM922.624 693.761h-615.424v61.44h615.424v-61.44z" />
<glyph unicode="&#xe616;" glyph-name="air" d="M135.372 634.523c89.446 76.8 160.154 137.574 351.846 29.184 92.108-52.070 166.4-71.63 228.25-71.63 108.288 0 178.432 60.262 239.104 112.332 21.658 18.586 24.474 51.61 6.246 73.678s-50.482 24.934-72.14 6.348c-89.446-76.85-160.102-137.574-351.898-29.184-253.338 143.104-372.020 41.164-467.354-40.754-21.606-18.586-24.422-51.558-6.246-73.626s50.534-24.986 72.192-6.35zM888.626 522.957c-89.446-76.8-160.102-137.574-351.898-29.184-253.286 143.104-371.968 41.166-467.302-40.704-21.658-18.586-24.474-51.61-6.246-73.678s50.482-24.934 72.142-6.35c89.446 76.85 160.154 137.574 351.846 29.236 92.11-52.070 166.4-71.68 228.25-71.68 108.288 0 178.432 60.262 239.104 112.384 21.658 18.586 24.474 51.558 6.246 73.626-18.176 22.118-50.482 24.934-72.14 6.348zM888.626 261.479c-89.446-76.8-160.102-137.574-351.898-29.184-253.286 143.104-372.020 41.216-467.302-40.704-21.658-18.586-24.474-51.61-6.246-73.678s50.482-24.934 72.142-6.35c89.498 76.85 160.154 137.524 351.898 29.236 92.11-52.070 166.4-71.68 228.25-71.68 108.288 0 178.432 60.262 239.104 112.384 21.658 18.534 24.474 51.558 6.246 73.626s-50.534 24.986-72.192 6.35z" />
<glyph unicode="&#xe617;" glyph-name="map" d="M1007.77 702.771l-239.308 149.862c-10.598 6.656-23.86 6.656-34.458 0l-222.004-139.060-222.002 139.008c-10.598 6.656-23.858 6.656-34.458 0l-239.308-149.812c-10.036-6.298-16.23-17.714-16.23-29.952v-599.398c0-12.596 6.45-24.27 16.998-30.464s23.398-6.042 33.74 0.462l222.002 139.058 222.002-139.058c10.598-6.656 23.86-6.656 34.51 0l222.004 139.058 222.002-139.058c5.274-3.328 11.264-5.018 17.254-5.018 5.682 0 11.366 1.536 16.486 4.558 10.496 6.196 16.998 17.87 16.998 30.464v599.398c0 12.236-6.196 23.654-16.23 29.952zM239.258 243.047l-172.288-107.878v517.836l172.288 107.878v-517.836zM478.514 135.169l-172.288 107.878v517.836l172.288-107.878v-517.836zM717.774 243.047l-172.236-107.878v517.836l172.236 107.878v-517.836zM956.98 135.169l-172.236 107.878v517.836l172.236-107.878v-517.836z" />
<glyph unicode="&#xe618;" glyph-name="user" d="M758.784 220.263c-126.208 45.978-166.554 84.788-166.554 167.884 0 49.87 38.554 33.586 55.45 124.928 7.014 37.888 41.062 0.614 47.616 87.092 0 34.458-18.586 43.058-18.586 43.058s9.472 51.046 13.158 90.266c4.506 48.948-28.262 175.31-203.468 175.31-175.156 0-208.026-126.362-203.418-175.31 3.686-39.218 13.158-90.266 13.158-90.266s-18.638-8.55-18.638-43.058c6.502-86.476 40.55-49.202 47.564-87.092 16.948-91.342 55.5-75.058 55.5-124.928 0-83.098-40.346-121.908-166.554-167.884-126.668-46.080-208.896-93.134-208.896-125.236 0-32.052 0-107.776 0-107.776h962.56c0 0 0 75.726 0 107.776s-82.278 79.104-208.896 125.236z" />
<glyph unicode="&#xe619;" glyph-name="feather" d="M217.806-51.813c15.668 51.25 39.424 123.442 71.218 227.89 138.548 22.374 195.89-17.87 283.904 142.54-71.424-22.322-157.542 41.422-152.884 69.018 4.608 27.648 200.346-19.918 328.448 165.786-161.486-36.3-213.198 43.674-192.358 55.758 48.076 27.904 190.822 11.572 266.906 87.194 39.22 38.912 57.548 133.582 41.626 167.374-19.2 40.754-136.038 101.582-200.448 95.898-64.41-5.734-165.428-250.318-195.38-248.372s-35.942 109.518 16.332 209.562c-55.142-24.882-156.16-102.348-187.854-168.55-59.034-123.188 5.53-405.658-15.154-415.744-20.736-10.034-90.418 129.69-111.206 193.024-28.416-97.076-29.082-194.356 53.966-323.584-31.334-84.788-48.436-182.374-51.046-231.986-1.23-39.732 37.018-48.23 43.93-25.804z" />
<glyph unicode="&#xe61a;" glyph-name="minus" d="M778.188 499.201h-532.428c-28.314 0-30.72-22.938-30.72-51.2s2.406-51.2 30.72-51.2h532.428c28.314 0 30.77 22.938 30.77 51.2s-2.458 51.2-30.77 51.2z" />
<glyph unicode="&#xe61b;" glyph-name="link" d="M402.38 207.667l-41.472-41.164c-35.942-35.584-94.362-35.634-130.252 0-17.254 17.152-26.726 39.834-26.726 64.052s9.522 46.95 26.726 64.102l152.576 151.398c31.59 31.386 91.084 77.516 134.452 34.51 19.918-19.764 52.070-19.61 71.782 0.256 19.764 19.866 19.66 52.020-0.256 71.782-73.678 73.114-182.63 59.596-277.504-34.51l-152.576-151.398c-36.558-36.352-56.73-84.686-56.73-136.14 0-51.404 20.174-99.738 56.782-136.090 37.682-37.428 87.142-56.064 136.602-56.064s99.022 18.636 136.704 56.064l41.472 41.216c19.916 19.764 20.020 51.918 0.256 71.73-19.762 19.866-51.916 19.968-71.834 0.256zM864.818 795.699c-79.154 78.542-189.798 82.79-263.116 10.086l-51.662-51.25c-19.918-19.764-20.070-51.866-0.308-71.782 19.814-19.916 51.918-20.020 71.782-0.256l51.66 51.252c37.938 37.682 87.654 22.068 120.116-10.086 17.254-17.102 26.726-39.886 26.726-64.052 0-24.218-9.524-46.95-26.726-64.052l-162.816-161.484c-74.394-73.83-109.364-39.22-124.262-24.422-19.916 19.764-52.020 19.61-71.73-0.256-19.762-19.918-19.662-52.070 0.256-71.782 34.15-33.894 73.216-50.688 114.074-50.688 50.074 0 102.962 25.19 153.242 75.11l162.764 161.486c36.608 36.3 56.78 84.634 56.78 136.038s-20.174 99.788-56.78 136.14z" />
<glyph unicode="&#xe61c;" glyph-name="soundcloud" d="M34.406 271.053l16.794 71.68-16.794 74.086c-0.46 2.202-4.658 3.89-9.83 3.89-5.222 0-9.42-1.69-9.83-3.89l-14.746-74.086 14.798-71.68c0.41-2.254 4.608-3.89 9.83-3.89 5.12 0 9.318 1.638 9.778 3.89zM139.366 231.271l14.234 110.798-14.234 171.366c-0.41 4.404-5.734 7.834-12.186 7.834-6.502 0-11.826-3.38-12.134-7.782l-12.646-171.418 12.646-110.798c0.308-4.352 5.632-7.73 12.134-7.73 6.45-0.052 11.776 3.38 12.186 7.73zM244.122 233.063l11.878 108.954-11.878 228.198c-0.306 5.324-6.656 9.574-14.388 9.574-7.782 0-14.132-4.198-14.388-9.574l-10.546-228.198 10.546-109.004c0.256-5.326 6.604-9.524 14.388-9.524 7.73 0 14.080 4.198 14.388 9.574zM348.672 234.701l9.728 107.264-9.728 229.888c-0.256 6.348-7.424 11.366-16.384 11.366-9.012 0-16.178-5.018-16.436-11.366l-8.654-229.888 8.704-107.264c0.154-6.298 7.372-11.316 16.384-11.316 8.96 0 16.128 4.914 16.384 11.316zM453.12 236.033l7.68 105.882-7.68 263.578c-0.154 7.27-8.396 13.158-18.33 13.158s-18.126-5.888-18.278-13.158l-6.912-263.476c0-0.154 6.912-105.932 6.912-105.932 0.154-7.168 8.346-13.056 18.278-13.056 9.932-0.052 18.176 5.786 18.33 13.004zM526.234 222.925c0.308 0 363.468-0.206 365.824-0.206 72.908 0 131.942 57.14 131.942 127.642s-59.034 127.642-131.942 127.642c-18.126 0-35.328-3.534-51.046-9.932-10.496 114.996-110.284 205.21-231.936 205.21-29.746 0-58.778-5.632-84.378-15.258-9.932-3.738-12.646-7.526-12.698-14.95v-405.044c0.102-7.834 6.35-14.336 14.234-15.104z" />
<glyph unicode="&#xe61d;" glyph-name="d" d="M640-63.999h-448q-27 0-45.5 18.5t-18.5 45.5v896q0 26 18.5 45t45.5 19h448q106 0 181-75t75-181v-512q0-106-75-181t-181-75zM768 704.001q0 53-37.5 90.5t-90.5 37.5h-352q-13 0-22.5-9.5t-9.5-22.5v-704q0-13 9.5-22.5t22.5-9.5h352q53 0 90.5 37.5t37.5 90.5v512z" />
<glyph unicode="&#xe61e;" glyph-name="move-horizontal" d="M384 384.001h-192v-128l-192 192 192 192v-128h192zM640 512.001h192v128l192-192-192-192v128h-192z" />
<glyph unicode="&#xe61f;" glyph-name="uniF6CC" d="M896-63.999h-768q-53 0-90.5 37.5t-37.5 90.5v768q0 53 37.5 90.5t90.5 37.5h768q53 0 90.5-37.5t37.5-90.5v-768q0-53-37.5-90.5t-90.5-37.5zM704 672.001q0 13-9.5 22.5t-22.5 9.5-22.5-9.5-9.5-22.5v-208q0-7-5-11.5t-11-4.5h-224q-7 0-12 4.5t-5 11.5v208q0 13-9 22.5t-22.5 9.5-23-9.5-9.5-22.5v-448q0-13 9.5-22.5t23-9.5 22.5 9.5 9 22.5v144q0 7 5 11.5t12 4.5h224q6 0 11-4.5t5-11.5v-144q0-13 9.5-22.5t22.5-9.5 22.5 9.5 9.5 22.5v448z" />
<glyph unicode="&#xe620;" glyph-name="image" d="M0 832.001v-832h1024v832h-1024zM960 64.001h-896v704h896v-704zM704 608.001c0 53.020 42.98 96 96 96s96-42.98 96-96c0-53.020-42.98-96-96-96s-96 42.98-96 96zM896 128.001h-768l192 512 256-320 128 96z" />
<glyph unicode="&#xe621;" glyph-name="images" d="M128 704.001v-640h896v640h-896zM960 170.667l-128 213.334-145.066-120.888-110.934 184.888-384-320v512h768v-469.334zM256 480.001c0 53.020 42.98 96 96 96s96-42.98 96-96c0-53.020-42.98-96-96-96s-96 42.98-96 96zM896 832.001h-896v-640h64v576h832z" />
<glyph unicode="&#xe622;" glyph-name="uniF602" d="M0-63.999v1024h1024v-1024h-1024zM960 896.001h-896v-896h896v896zM896 256.001h-768v576h768v-576z" />
<glyph unicode="&#xe623;" glyph-name="stack" d="M1024 640.001l-512 256-512-256 512-256 512 256zM512 811.031l342.058-171.030-342.058-171.030-342.058 171.030 342.058 171.030zM921.444 499.279l102.556-51.278-512-256-512 256 102.556 51.278 409.444-204.722zM921.444 307.279l102.556-51.278-512-256-512 256 102.556 51.278 409.444-204.722z" />
<glyph unicode="&#xe624;" glyph-name="uniF61C" d="M992 64.001h-704q-13 0-22.5 9.5t-9.5 22.5v32h704v448h32q13 0 22.5-9.5t9.5-22.5v-448q0-13-9.5-22.5t-22.5-9.5zM864 192.001h-704q-13 0-22.5 9.5t-9.5 22.5v32h704v448h32q13 0 22.5-9.5t9.5-22.5v-448q0-13-9.5-22.5t-22.5-9.5zM736 320.001h-704q-13 0-22.5 9.5t-9.5 22.5v448q0 13 9.5 22.5t22.5 9.5h704q13 0 22.5-9.5t9.5-22.5v-448q0-13-9.5-22.5t-22.5-9.5zM704 768.001h-640v-384h640v384z" />
<glyph unicode="&#xe625;" glyph-name="insertpicture" d="M992 128.001q13 0 22.5-9.5t9.5-22.5v-128q0-13-9.5-22.5t-22.5-9.5h-128q-13 0-22.5 9.5t-9.5 22.5v32h-640v-32q0-13-9.5-22.5t-22.5-9.5h-128q-13 0-22.5 9.5t-9.5 22.5v128q0 13 9.5 22.5t22.5 9.5h32v640h-32q-13 0-22.5 9.5t-9.5 22.5v128q0 13 9.5 22.5t22.5 9.5h128q13 0 22.5-9.5t9.5-22.5v-32h640v32q0 13 9.5 22.5t22.5 9.5h128q13 0 22.5-9.5t9.5-22.5v-128q0-13-9.5-22.5t-22.5-9.5h-32v-640h32zM64 16.001q0-7 4.5-11.5t11.5-4.5h32q7 0 11.5 4.5t4.5 11.5v32q0 7-4.5 11.5t-11.5 4.5h-32q-7 0-11.5-4.5t-4.5-11.5v-32zM128 880.001q0 7-4.5 11.5t-11.5 4.5h-32q-7 0-11.5-4.5t-4.5-11.5v-32q0-7 4.5-11.5t11.5-4.5h32q7 0 11.5 4.5t4.5 11.5v32zM832 800.001v32h-640v-32q0-13-9.5-22.5t-22.5-9.5h-32v-640h32q13 0 22.5-9.5t9.5-22.5v-32h640v32q0 13 9.5 22.5t22.5 9.5h32v640h-32q-13 0-22.5 9.5t-9.5 22.5zM960 880.001q0 7-4.5 11.5t-11.5 4.5h-32q-7 0-11.5-4.5t-4.5-11.5v-32q0-7 4.5-11.5t11.5-4.5h32q7 0 11.5 4.5t4.5 11.5v32zM944 64.001h-32q-7 0-11.5-4.5t-4.5-11.5v-32q0-7 4.5-11.5t11.5-4.5h32q7 0 11.5 4.5t4.5 11.5v32q0 7-4.5 11.5t-11.5 4.5zM477 345.001l149 150q18 18 46.5 18t46.5-18l49-49v-254h-140zM352 512.001q-40 0-68 28t-28 68 28 68 68 28 68-28 28-68-28-68-68-28zM367 366.001l173-174h-284v156l18 18q18 19 46.5 19t46.5-19z" />
<glyph unicode="&#xe626;" glyph-name="bubbles" horiz-adv-x="1152" d="M480 832.001c-50.666 0-99.582-7.95-145.386-23.628-42.924-14.694-81.114-35.436-113.502-61.646-60.044-48.59-93.112-110.802-93.112-175.174 0-35.99 10.066-70.948 29.92-103.898 20.686-34.34 51.898-65.794 90.26-90.958 30.44-19.968 50.936-51.952 56.362-87.95 0.902-5.99 1.63-12.006 2.18-18.032 2.722 2.52 5.424 5.114 8.114 7.794 24.138 24.040 56.688 37.312 90.322 37.312 5.348 0 10.718-0.336 16.094-1.018 19.36-2.452 39.124-3.696 58.748-3.696 50.666 0 99.58 7.948 145.384 23.628 42.926 14.692 81.116 35.434 113.504 61.644 60.046 48.59 93.112 110.802 93.112 175.174s-33.066 126.582-93.112 175.174c-32.388 26.212-70.578 46.952-113.504 61.646-45.804 15.678-94.718 23.628-145.384 23.628zM480 960.001v0c265.096 0 480-173.914 480-388.448s-214.904-388.448-480-388.448c-25.458 0-50.446 1.62-74.834 4.71-103.106-102.694-222.172-121.108-341.166-123.814v25.134c64.252 31.354 116 88.466 116 153.734 0 9.106-0.712 18.048-2.030 26.794-108.558 71.214-177.97 179.988-177.97 301.89 0 214.534 214.904 388.448 480 388.448zM996 89.315c0-55.942 36.314-104.898 92-131.772v-21.542c-103.126 2.318-197.786 18.102-287.142 106.126-21.14-2.65-42.794-4.040-64.858-4.040-95.47 0-183.408 25.758-253.614 69.040 144.674 0.506 281.26 46.854 384.834 130.672 52.208 42.252 93.394 91.826 122.414 147.348 30.766 58.866 46.366 121.582 46.366 186.406 0 10.448-0.45 20.836-1.258 31.168 72.57-59.934 117.258-141.622 117.258-231.676 0-104.488-60.158-197.722-154.24-258.764-1.142-7.496-1.76-15.16-1.76-22.966z" />
<glyph unicode="&#xe627;" glyph-name="font" d="M960.5 640.001q-26.5 0-45.5 19t-19 45q0 53-37.5 90.5t-90.5 37.5h-64q-26 0-45-18.5t-19-45.5v-640q0-26 19-45t45.5-19 45-18.5 18.5-45-18.5-45.5-45.5-19h-384q-26 0-45 18.5t-19 45.5 19 45.5 45.5 18.5 45 19 18.5 45v640q0 27-18.5 45.5t-45.5 18.5h-64q-53 0-90.5-37.5t-37.5-90.5q0-26-18.5-45t-45-19-45.5 19-19 45v192q0 26 19 45t45 19h896q26 0 45-19t19-45v-192q0-27-18.5-45.5t-45-18.5z" />
<glyph unicode="&#xe628;" glyph-name="H" d="M832.5-63.999q-26.5 0-45 18.5t-18.5 45.5v352q0 13-9.5 22.5t-22.5 9.5h-449q-13 0-22.5-9.5t-9.5-22.5v-352q0-27-18.5-45.5t-45.5-18.5-45.5 18.5-18.5 45.5v896q0 26 18.5 45t45.5 19 45.5-19 18.5-45v-352q0-13 9.5-22.5t22.5-9.5h449q13 0 22.5 9.5t9.5 22.5v352q0 26 18.5 45t45 19 45.5-18.5 19-45.5v-896q0-27-19-45.5t-45.5-18.5z" />
<glyph unicode="&#xe629;" glyph-name="share2" d="M896-63.999h-768q-53 0-90.5 37.5t-37.5 90.5v768q0 53 37.5 90.5t90.5 37.5h256q26 0 45-19t19-45.5-19-45-45-18.5h-192q-26 0-45-19t-19-45v-640q0-27 18.5-45.5t45.5-18.5h640q26 0 45 18.5t19 45.5v192q0 26 18.5 45t45 19 45.5-19 19-45v-256q0-53-37.5-90.5t-90.5-37.5zM959.5 448.001q-26.5 0-45 18.5t-18.5 45.5v238l-413-413q-17-17-41-17t-41 17-17 41 17 41l413 413h-238q-27 0-45.5 18.5t-18.5 45 18.5 45.5 45.5 19h384q26 0 45-19t19-45v-384q0-27-19-45.5t-45.5-18.5z" />
<glyph unicode="&#xe62a;" glyph-name="layers-alt" horiz-adv-x="1022" d="M0 192.001l512.032-128 511.968 128v-128l-511.968-128-512.032 128zM0 448.001l512.032-128 511.968 128v-128l-511.968-128-512.032 128zM0 704.001l512.032-128 511.968 128v-128l-511.968-128-512.032 128zM0 960.001l512.032-128 511.968 128v-128l-511.968-128-512.032 128z" />
<glyph unicode="&#xe62b;" glyph-name="folder" d="M768 704.001h-256c0 47.104-38.228 85.332-85.332 85.332h-170.668c-70.57 0-128-57.428-128-128v-426.668c0-70.572 57.43-128 128-128h512c70.572 0 128 57.428 128 128v341.332c0 70.572-57.428 128-128 128zM256 704.001h170.668c0-47.104 38.228-85.332 85.332-85.332h256c23.552 0 42.668-19.116 42.668-42.668h-597.332v85.332c0 23.552 19.116 42.668 42.668 42.668zM768 192.001h-512c-23.552 0-42.668 19.116-42.668 42.668v298.666h597.332v-298.666c0-23.552-19.116-42.668-42.668-42.668z" />
<glyph unicode="&#xe62c;" glyph-name="vimeo2" d="M853.31 960.001h-682.62c-93.878 0-170.69-76.816-170.69-170.692v-682.62c0-93.938 76.812-170.688 170.69-170.688h682.62c93.878 0 170.69 76.75 170.69 170.69v682.618c0 93.876-76.812 170.692-170.69 170.692zM812.868 521.875c-33.958-191.296-223.708-353.296-280.78-390.31-57.088-37.006-109.154 14.822-128.038 53.994-21.616 44.708-86.41 286.94-103.368 307.020-16.964 20.038-67.876-20.080-67.876-20.080l-24.692 32.376c0 0 103.382 123.448 182.040 138.878 83.404 16.366 83.28-128.066 103.34-208.242 19.4-77.564 32.44-121.952 49.376-121.952 16.97 0 49.382 43.262 84.852 109.57 35.536 66.376-1.538 125.010-70.972 83.292 27.786 166.652 290.062 206.72 256.118 15.454z" />
<glyph unicode="&#xe62d;" glyph-name="TFicon" horiz-adv-x="920" d="M916.672 655.281l-456.696 304.528-456.64-304.6v-411.432l456.688-304.504 456.648 304.552v411.456zM62.256 504.569v119.112l397.744 265.296 397.76-265.232v-158.44l-397.776-265.264-231.664 154.496 89.28 59.576 142.424-94.952 337.856 225.368-337.936 225.312-397.688-265.272zM370.68 449.537l89.28 59.552 89.312-59.56-89.272-59.536-89.32 59.544zM460.024 10.073l-397.768 265.232v158.448l397.744 265.272 231.696-154.496-89.32-59.584-142.448 94.96-337.8-225.416 337.896-225.288 397.736 265.28v-119.136l-397.736-265.272z" />
<glyph unicode="&#xe62e;" glyph-name="loop-alt2" d="M384 640.001h-128v64c0 35.264 28.736 64 64 64h384c35.264 0 64-28.736 64-64v-64h128v64c0 105.888-86.112 192-192 192h-384c-105.888 0-192-86.112-192-192v-64h-128l192-256 192 256zM832 512.001l-192-256h128v-64c0-35.264-28.736-64-64-64h-384c-35.264 0-64 28.736-64 64v64h-128v-64c0-105.888 86.112-192 192-192h384c105.888 0 192 86.112 192 192v64h128l-192 256z" />
<glyph unicode="&#xe62f;" glyph-name="anchor" d="M927.968 348.961l-36.352-247.328-73.568 71.36c-58.272-49.248-166.336-116.256-323.328-116.256-157.92 0-267.136 65.376-325.248 112.224l-67.136-65.12-38.336 245.088 252.576-37.184-69.6-67.552c48.832-36.256 125.44-79.968 201.728-79.968l-0.224 403.488c-55.712 19.392-95.808 70.624-95.808 131.36 0 77.376 64.608 140.096 144.32 140.096 79.68 0 144.32-62.72 144.32-140.096 0-61.664-41.344-113.44-98.368-132.128 0.352-78.72 1.632-404.224-0.128-404.224 72.96 0 148.288 47.488 197.344 85.888l-65.024 63.136 252.832 37.216zM571.392 701.345c0 39.872-33.312 72.224-74.4 72.224s-74.432-32.352-74.432-72.224c0-39.904 33.344-72.256 74.432-72.256s74.4 32.352 74.4 72.256z" />
<glyph unicode="&#xe630;" glyph-name="pointer" d="M534.048 395.041l169.952-395.040-128-64-148.672 405.696-235.328-213.696v832l640-512-297.952-52.96z" />
<glyph unicode="&#xe631;" glyph-name="ellipsis" d="M153.6 560.641c-62.208 0-112.64-50.432-112.64-112.64s50.432-112.64 112.64-112.64 112.64 50.432 112.64 112.64c0 62.208-50.432 112.64-112.64 112.64zM512 560.641c-62.208 0-112.64-50.432-112.64-112.64s50.432-112.64 112.64-112.64 112.588 50.432 112.588 112.64c0 62.208-50.38 112.64-112.588 112.64zM870.4 560.641c-62.208 0-112.64-50.432-112.64-112.64s50.432-112.64 112.64-112.64 112.64 50.432 112.64 112.64c0 62.208-50.432 112.64-112.64 112.64z" />
<glyph unicode="&#xe632;" glyph-name="tag" d="M938.068 583.637l-120.96 376.022-390.656-120.746-341.164-630.486 503.38-272.084 340.308 628.948c0.256 0.428 0.512 0.896 0.726 1.28l9.044 16.726-0.682 0.342zM756.48 604.373c-30.804-57.088-102.1-78.336-159.232-47.488-57.13 30.932-78.336 102.188-47.446 159.188 30.848 57.13 102.23 78.336 159.274 47.488 57.088-30.848 78.336-102.144 47.404-159.188z" />
<glyph unicode="&#xe633;" glyph-name="file" d="M903.432 760.571l-142.864 142.862c-31.112 31.112-92.568 56.568-136.568 56.568h-480c-44 0-80-36-80-80v-864c0-44 36-80 80-80h736c44 0 80 36 80 80v608c0 44-25.456 105.458-56.568 136.57zM858.178 715.315c3.13-3.13 6.25-6.974 9.28-11.314h-163.458v163.456c4.34-3.030 8.184-6.15 11.314-9.28l142.864-142.862zM896 16.001c0-8.672-7.328-16-16-16h-736c-8.672 0-16 7.328-16 16v864c0 8.672 7.328 16 16 16h480c4.832 0 10.254-0.61 16-1.704v-254.296h254.296c1.094-5.746 1.704-11.166 1.704-16v-608z" />
<glyph unicode="&#xe634;" glyph-name="sidebar" d="M96 832.001v-800h800v800h-800zM608 64.001h-480v736h480v-736zM864 64.001h-224v736h224v-736z" />
<glyph unicode="&#xe635;" glyph-name="header" d="M96 832.001v-800h800v800h-800zM864 64.001h-736v544h736v-544zM864 640.001h-736v160h736v-160z" />
<glyph unicode="&#xe636;" glyph-name="page_title" d="M980.496 916.497v-936.994h-936.994v936.994h936.994zM1023.164 959.165h-1022.326v-1022.326h1022.326v1022.326zM10.428 726.751h999.356v-200.534h-999.356v200.534z" />
<glyph unicode="&#xe637;" glyph-name="footer" d="M96 64.001v800h800v-800h-800zM864 832.001h-736v-544h736v544zM864 256.001h-736v-160h736v160z" />
<glyph unicode="&#xe638;" glyph-name="equalizer" d="M896 512.001h16c26.4 0 48 21.6 48 48v160c0 26.4-21.6 48-48 48h-16v192h-128v-192h-16c-26.4 0-48-21.6-48-48v-160c0-26.4 21.6-48 48-48h16v-576h128v576zM768 704.001h128v-128h-128v128zM592 128.001c26.4 0 48 21.6 48 48v160c0 26.4-21.6 48-48 48h-16v576h-128v-576h-16c-26.4 0-48-21.6-48-48v-160c0-26.4 21.6-48 48-48h16v-192h128v192h16zM448 320.001h128v-128h-128v128zM272 512.001c26.4 0 48 21.6 48 48v160c0 26.4-21.6 48-48 48h-16v192h-128v-192h-16c-26.4 0-48-21.6-48-48v-160c0-26.4 21.6-48 48-48h16v-576h128v576h16zM128 704.001h128v-128h-128v128z" />
<glyph unicode="&#xe639;" glyph-name="logo" d="M102.4 960.001h138.616v-896h692.48v-128h-831.096v1024z" />
<glyph unicode="&#xe63a;" glyph-name="sitewidth" d="M426.666 832.001v-42.668h42.666v42.668h-42.668zM853.332 789.333v42.668h-42.668v-42.668h42.668zM85.332 789.333v42.668h-42.668v85.332h-42.668v-213.332h42.668v85.332h42.668zM682.668 832.001v-42.668h42.668v42.668h-42.668zM554.668 832.001v-42.668h42.668v42.668h-42.668zM1024 576.001h-1024v-554.668h1024v554.668zM85.332 234.667v256h853.332v-256h-853.332zM85.332 106.667v85.332h85.332v-85.332h-85.332zM213.332 106.667v85.332h85.332v-85.332h-85.332zM341.334 106.667v85.332h85.334v-85.332h-85.332zM469.334 106.667v85.332h85.334v-85.332h-85.332zM597.332 106.667v85.332h85.332v-85.332h-85.332zM725.332 106.667v85.332h85.332v-85.332h-85.332zM853.332 106.667v85.332h85.332v-85.332h-85.332zM981.332 917.333v-85.332h-42.668v-42.668h42.668v-85.332h42.668v213.332h-42.668zM170.668 832.001v-42.668h42.668v42.668h-42.668zM298.666 832.001v-42.668h42.666v42.668h-42.668z" />
<glyph unicode="&#xe63b;" glyph-name="tools" d="M889.056 706.049c30.688-74.016 16.064-162.368-44.128-222.56-66.272-66.272-166.432-76.64-244.288-32.704l-56.288-61.472 40.16-40.32 24 24c12.256 12.288 32.16 12.288 44.416 0l194.624-196.608c12.288-12.256 12.288-32.16 0-44.416l-88.832-88.832c-12.256-12.288-32.16-12.288-44.416 0l-194.624 196.608c-12.288 12.256-12.288 32.16 0 44.416l21.92 21.92-38.272 38.368-269.152-294.048c-24.544-24.544-64.32-24.544-88.832 0l-22.208 22.208c-24.544 24.544-24.544 64.32 0 88.832l306.624 256.8-203.648 204.192-64.32 0.032-74.432 119.68 59.904 60 122.4-74.912 0.8-62.976 206.016-206.816 59.936 50.176c-58.592 79.872-52.48 192.384 19.712 264.576 59.904 59.904 147.776 74.784 221.6 44.672l-131.968-130.144 111.072-111.072 132.224 130.4zM196.8 130.113c-12.256 12.256-32.128 12.256-44.416 0-12.288-12.288-12.288-32.16 0-44.448 12.288-12.256 32.16-12.256 44.416 0 12.288 12.32 12.288 32.192 0 44.448z" />
<glyph unicode="&#xe63c;" glyph-name="loop" d="M874.022 810.021c-92.652 92.656-220.636 149.98-362.022 149.98-219.488 0-406.69-138.128-479.498-332.188l119.876-44.954c54.604 145.546 195.006 249.142 359.622 249.142 106.040 0 202.020-43 271.506-112.494l-143.506-143.506h384v384l-149.978-149.98zM512 64.001c-106.040 0-202.026 42.992-271.512 112.488l143.512 143.512h-384v-384l149.994 149.994c92.646-92.662 220.618-149.994 362.006-149.994 219.49 0 406.692 138.128 479.5 332.188l-119.876 44.954c-54.604-145.546-195.006-249.142-359.624-249.142z" />
<glyph unicode="&#xe63d;" glyph-name="droplet" d="M522.394 931.277c-1.332 10.956-19.456 10.956-20.786 0-45.21-363.93-276.326-438.938-276.326-691.866 0-156.212 131.226-282.88 286.72-282.88s286.72 126.72 286.72 282.88c0 252.928-231.116 327.936-276.326 691.866zM478.772 528.999c-3.072-11.212-6.298-22.784-9.626-34.662-20.532-72.908-43.826-155.596-43.826-251.188 0-51.814-30.618-70.196-59.238-70.196-32.666 0-59.188 26.674-59.188 59.698 0 112.998 54.426 186.778 102.452 251.904 15.052 20.378 29.236 39.63 40.806 58.88 5.274 8.754 19.508 8.396 25.958-0.308 2.918-4.198 3.942-9.318 2.662-14.13z" />
<glyph unicode="&#xe63e;" glyph-name="drive" d="M956.62 376.423l-161.178 383.59c-12.698 25.6-46.49 46.542-75.11 46.542h-416.614c-28.62 0-62.414-20.942-75.162-46.542l-161.126-383.59c-12.8-25.6-19.406-69.632-14.694-97.894l34.816-188.722c4.71-28.212 31.898-51.302 60.466-51.302h728.064c28.62 0 55.808 23.092 60.518 51.302l34.816 188.722c4.558 28.212-1.996 72.294-14.798 97.894zM886.784 241.971l-13.21-76.902c-3.994-29.542-30.618-53.71-59.086-53.71h-604.98c-28.518 0-55.092 24.166-59.086 53.71l-13.26 76.902c-3.942 29.542 16.128 53.71 44.698 53.71h660.274c28.57-0.052 48.64-24.166 44.646-53.71z" />
<glyph unicode="&#xe63f;" glyph-name="pin-outline" d="M914.602 636.331l-170.582 171.52c-32.086 32.256-88.020 32.596-120.746 0.256-8.362-8.362-14.932-18.602-17.836-26.836-27.86-58.112-57.77-94.506-96.17-116.352l-9.26-4.48c-41.3-20.692-97.492-41.772-201.344-41.772-11.348 0-22.228-2.218-32.682-6.486-20.652-8.618-37.504-25.386-46.164-46.25-8.492-20.65-8.492-44.416 0-65.068 4.438-10.624 10.668-20.096 18.56-27.776l138.028-138.028-163.072-228.394 228.352 163.072 137.684-137.686c7.936-8.064 17.322-14.464 27.99-18.816 10.538-4.394 21.462-6.572 32.682-6.572s22.144 2.22 32.64 6.572c21.248 8.746 37.674 25.26 46.080 45.996 4.394 10.326 6.614 21.632 6.614 32.768 0 103.936 21.076 160.086 41.728 201.428 21.164 42.326 58.41 74.582 117.504 102.996 11.562 4.438 21.76 10.924 30.336 19.5 32.938 33.366 32.768 87.51-0.342 120.406zM690.688 431.489c-34.944-70.1-50.688-143.788-50.986-239.104l-341.036 340.948c91.264 0 162.73 14.294 230.228 46.25l10.028 4.48c59.692 29.824 105.302 80.768 144.556 163.584l167.424-172.842c-79.488-38.1-130.39-83.628-160.212-143.318z" />
<glyph unicode="&#xe640;" glyph-name="pen" d="M212 382.593l-104.416-317.952 139.552 140.064c-9.6 24.224-7.232 65.6 12.384 85.184 26.272 26.304 69.536 25.696 95.808-0.608 26.304-26.304 27.712-70.336 1.44-96.64-20-20-63.936-21.152-88.448-10.784l-138.336-138.72 310.432 109.056 113.056 203.648-137.728 135.872-203.744-109.12zM735.392 852.833c0 0-192.352-192.32-222.016-222.016-29.728-29.696-45.248-141.408-45.248-141.408l86.24-86.272c0 0 108.896 15.552 140 46.688 31.136 31.104 222.016 222.016 222.016 222.016l-180.992 180.992z" />
<glyph unicode="&#xe641;" glyph-name="file-add" d="M889 912h-580c-48.053 0-87-38.948-87-87v-87h-87c-48.052 0-87-38.947-87-87v-580c0-48.053 38.948-87 87-87h580c48.053 0 87 38.947 87 87v87h87c48.053 0 87 38.947 87 87v580c0 48.052-38.947 87-87 87zM704.125 71h-558.25c-2.883 0-5.653 1.144-7.687 3.184s-3.185 4.805-3.185 7.688v558.25c0 2.883 1.144 5.652 3.185 7.688s4.805 3.184 7.687 3.184h76.125v-406c0-48.053 38.947-87 87-87h406v-76.125c0-2.883-1.144-5.652-3.184-7.688s-4.805-3.184-7.688-3.184zM878.125 245h-558.25c-2.883 0-5.652 1.144-7.688 3.184s-3.184 4.805-3.184 7.688v558.25c0 2.883 1.144 5.653 3.184 7.687s4.805 3.185 7.688 3.185h558.25c2.883 0 5.652-1.144 7.688-3.185s3.184-4.805 3.184-7.687v-558.25c0-2.883-1.144-5.652-3.184-7.688s-4.805-3.184-7.688-3.184zM400.145 704.855h266.18v-84.93h-266.18v84.93zM400.145 577.465h398.75v-42.465h-398.75v42.465zM400.145 492.535h398.75v-42.465h-398.75v42.465zM400.145 407.605h398.75v-42.465h-398.75v42.465z" />
<glyph unicode="&#xe642;" glyph-name="reply" d="M972.8 99.841c0 0-102.4 498.33-551.68 498.33v197.99l-369.92-330.496 369.92-342.578v223.13c243.866 0 424.55-21.606 551.68-246.374z" />
<glyph unicode="&#xe643;" glyph-name="forward" d="M602.88 346.215v-223.078l369.92 342.528-369.92 330.496v-197.938c-449.28 0-551.68-498.38-551.68-498.38 127.13 224.768 307.814 246.374 551.68 246.374z" />
<glyph unicode="&#xe644;" glyph-name="equalizer2" d="M896 512.001h16c26.4 0 48 21.6 48 48v160c0 26.4-21.6 48-48 48h-16v192h-128v-192h-16c-26.4 0-48-21.6-48-48v-160c0-26.4 21.6-48 48-48h16v-576h128v576zM768 704.001h128v-128h-128v128zM592 128.001c26.4 0 48 21.6 48 48v160c0 26.4-21.6 48-48 48h-16v576h-128v-576h-16c-26.4 0-48-21.6-48-48v-160c0-26.4 21.6-48 48-48h16v-192h128v192h16zM448 320.001h128v-128h-128v128zM272 512.001c26.4 0 48 21.6 48 48v160c0 26.4-21.6 48-48 48h-16v192h-128v-192h-16c-26.4 0-48-21.6-48-48v-160c0-26.4 21.6-48 48-48h16v-576h128v576h16zM128 704.001h128v-128h-128v128z" />
<glyph unicode="&#xe645;" glyph-name="plus2" d="M778.188 499.201h-215.040v215.040c0 28.262-22.886 30.72-51.2 30.72-28.262 0-51.2-2.406-51.2-30.72v-215.040h-214.99c-28.314 0-30.72-22.938-30.72-51.2s2.406-51.2 30.72-51.2h214.99v-215.040c0-28.262 22.938-30.72 51.2-30.72 28.314 0 51.2 2.458 51.2 30.72v215.040h215.040c28.314 0 30.77 22.938 30.77 51.2s-2.458 51.2-30.77 51.2z" />
<glyph unicode="&#xe646;" glyph-name="Gravityforms" horiz-adv-x="930" d="M930.072 631.447c-0.008 46.772-33.13 104.188-73.664 127.578l-317.708 183.432c-40.508 23.39-106.818 23.39-147.324 0l-317.712-183.432c-40.516-23.382-73.662-80.806-73.662-127.578v-366.878c0-46.788 33.142-104.2 73.662-127.598l317.716-183.438c40.514-23.378 106.826-23.378 147.324 0l317.708 183.438c40.538 23.394 73.662 80.814 73.662 127.598v366.878zM667.958 395.585h-398.274l-18.37-114.024c-2.162-15.128-10.808-22.698-25.94-22.698h-55.122c-15.132 0-21.616 7.57-19.454 22.698l38.37 242.634c11.348 71.332 47.016 112.942 130.236 112.942h440.424c15.128 0 21.61-7.566 19.452-22.698l-7.028-43.23c-2.158-15.132-11.346-22.696-26.476-22.696h-412.318c-25.94 0-42.152-14.052-45.936-39.988l-3.784-24.32h398.27c15.128 0 21.072-7.566 18.914-22.692l-7.028-43.234c-2.158-15.136-10.804-22.698-25.932-22.698z" />
<glyph unicode="&#xe900;" glyph-name="privacy" horiz-adv-x="896" d="M767.8 343.403l47.8 125.2c8 21-7.4 43.4-30 43.4h-117c22 37.8 35.6 81.2 35.6 128v0.6c78.4 15.6 128 38.2 128 63.4 0 26.6-54.6 50.2-140.2 66-18.4 65.6-54 131.6-81.2 165.6-19 23.8-51.8 31.2-79 17.6l-55.2-27.6c-18-9-39.2-9-57.2 0l-55.2 27.6c-27.2 13.6-60 6.2-79-17.6-27-34-62.8-100-81.2-165.6-85.4-15.8-140-39.4-140-66 0-25.2 49.6-47.8 128-63.4v-0.6c0-46.8 13.6-90.2 35.6-128h-115c-23 0-38.4-23.4-29.4-44.6l51.6-120.4c-80.2-46.6-134.8-132.4-134.8-231.8v-89.6c0-49.4 40.2-89.6 89.6-89.6h716.8c49.4 0 89.6 40.2 89.6 89.6v89.6c0 96.8-51.6 180.8-128.2 228.2zM352 0.003l-83.2 384 99.2-64 48-80-64-240zM544 0.003l-64 240 48 80 99.2 64-83.2-384zM627.4 597.003c-7.8-23.8-14-49.2-33-66.8-20.2-18.6-96-44.8-128 50-5.6 16.8-30.8 16.8-36.6 0-34-100.4-112-64.8-128-50-19 17.6-25.4 43-33 66.8-1.6 5-12.6 11.4-12.6 11.6v21.6c56.6-7.2 122-11.6 192-11.6s135.4 4.2 192 11.6v-21.6c-0.2-0.2-11.2-6.4-12.8-11.6z" />
<glyph unicode="&#xe901;" glyph-name="FB_logo_black-solid-1" horiz-adv-x="926" d="M463.622-55.531c-16.126 0-31.849 4.031-45.556 12.094l-364.447 206.816c-28.22 16.126-45.959 45.959-45.959 78.211v413.631c0 32.252 17.335 62.085 45.959 78.211l364.447 206.816c13.707 7.66 29.43 11.691 45.556 11.691s31.849-4.031 45.556-12.094l364.447-206.816c28.22-16.126 45.556-45.959 45.556-78.211v-413.631c0-32.252-17.335-62.085-45.959-78.211l-364.044-206.816c-13.707-7.66-29.43-11.691-45.556-11.691zM463.622 905.175c-7.66 0-15.32-2.016-22.173-5.644l-364.044-207.219c-13.707-7.66-21.77-21.77-21.77-37.090v-413.631c0-15.32 8.466-29.43 21.77-37.090l364.447-206.816c12.901-7.257 31.043-7.257 44.346 0l364.447 206.816c13.707 7.66 21.77 21.77 21.77 37.090v413.631c0 15.32-8.466 29.43-21.77 37.090l-364.447 206.816c-7.257 4.031-14.917 6.047-22.576 6.047zM393.474 106.938c-8.869 0-17.335 2.419-24.995 7.257l-252.372 156.825c-14.11 8.869-22.576 24.592-22.576 41.524s8.466 32.655 22.576 41.524l41.121 26.205-41.121 26.205c-14.11 8.869-22.576 24.592-22.576 41.524s8.466 32.655 22.576 41.524l41.121 26.205-41.121 26.205c-14.11 8.869-22.576 24.592-22.576 41.524s8.466 32.655 22.576 41.524l252.775 157.228c7.66 4.838 16.126 7.257 24.995 7.257 26.205 0 47.572-21.77 47.572-48.781v-74.986c0-16.932-8.466-32.655-22.576-41.524l-175.37-108.447 63.294-40.315 131.83 83.452c14.917 9.676 35.074 9.676 50.394 0l131.83-83.452 63.294 40.315-174.967 108.044c-14.11 8.869-22.576 24.995-22.576 41.524v74.986c0 13.304 5.241 25.802 14.513 35.074 8.869 8.869 20.964 13.707 33.461 13.707 8.869 0 17.335-2.419 24.995-7.257l252.372-156.825c14.11-8.869 22.576-24.592 22.576-41.524s-8.466-32.655-22.576-41.524l-41.121-26.205 41.121-26.205c14.11-8.869 22.576-24.592 22.576-41.524s-8.466-32.655-22.576-41.524l-41.121-26.205 41.121-26.205c14.11-8.869 22.576-24.592 22.576-41.524s-8.466-32.655-22.576-41.524l-252.775-157.228c-7.66-4.838-16.126-7.257-24.995-7.257-26.205 0-47.572 21.77-47.572 48.781v74.986c0 16.932 8.466 32.655 22.576 41.524l174.967 108.447-63.294 40.315-131.83-83.452c-14.917-9.676-35.074-9.676-50.394 0l-131.83 83.452-63.294-40.315 174.967-108.044c14.11-8.869 22.576-24.995 22.576-41.524v-74.986c0.403-27.011-20.964-48.781-47.572-48.781zM200.365 353.263l-60.069-37.896c-0.806-0.403-1.209-1.209-1.209-2.419s0.403-2.016 1.209-2.419l252.372-156.825c0.403-0.403 0.806-0.403 0.806-0.403s2.016 0.403 2.016 2.419v74.986c0 1.209-0.403 2.016-1.209 2.419l-193.915 120.139zM726.879 353.263l-194.318-120.139c-0.403-0.403-0.806-1.209-0.806-2.419v-74.986c0-2.419 2.016-2.419 2.016-2.419s0.403 0 0.806 0.403l252.775 157.228c0.403 0.403 0.806 1.209 0.806 2.419s-0.403 2.016-1.209 2.419l-60.069 37.493zM349.934 448.003l112.882-71.761c0.403 0 1.209 0 1.613 0l112.882 71.761-112.882 71.761c-0.403 0-1.209 0-1.613 0l-112.882-71.761zM663.584 448.003l63.698-40.315 59.666 37.896c0.806 0.403 1.209 1.209 1.209 2.419s-0.403 2.016-1.209 2.419l-59.666 37.896-63.698-40.315zM200.365 488.721l-59.666-37.896c-0.806-0.403-1.209-1.209-1.209-2.419s0.403-2.016 1.209-2.419l59.666-37.896 63.698 40.315-63.698 40.315zM393.474 743.109c0 0-0.403 0-0.806-0.403l-252.775-157.228c-0.403-0.403-0.806-1.209-0.806-2.419s0.403-2.016 1.209-2.419l60.069-37.896 194.318 120.139c0.403 0.403 0.806 1.209 0.806 2.419v75.389c0 2.419-2.016 2.419-2.016 2.419zM533.77 743.109c-0.403 0-0.806 0-1.209-0.403s-0.806-1.613-0.806-2.016v-74.986c0-1.209 0.403-2.016 1.209-2.419l193.915-120.139 60.069 37.896c0.806 0.403 1.209 1.209 1.209 2.419s-0.403 2.016-1.209 2.419l-252.372 156.825c-0.806 0.403-0.806 0.403-0.806 0.403z" />
<glyph unicode="&#xe902;" glyph-name="calendar-check-regular" horiz-adv-x="896" d="M800 832.003h-96v104c0 13.254-10.746 24-24 24h-80c-13.254 0-24-10.746-24-24v-104h-256v104c0 13.254-10.746 24-24 24h-80c-13.254 0-24-10.746-24-24v-104h-96c-53.020 0-96-42.98-96-96v-704c0-53.020 42.98-96 96-96h704c53.020 0 96 42.98 96 96v704c0 53.020-42.98 96-96 96zM788 32.003h-680c-6.627 0-12 5.373-12 12v0 596h704v-596c0-6.627-5.373-12-12-12v0zM682.302 433.303l-284.618-282.338c-9.41-9.334-24.606-9.274-33.942 0.136l-150.182 151.398c-9.334 9.41-9.274 24.606 0.136 33.942l45.438 45.072c9.41 9.334 24.606 9.274 33.94-0.138l88.208-88.922 222.144 220.362c9.41 9.334 24.606 9.274 33.942-0.136l45.072-45.436c9.334-9.41 9.272-24.606-0.138-33.94z" />
<glyph unicode="&#xe903;" glyph-name="calendar-alt-regular" horiz-adv-x="896" d="M296 384.003h-80c-13.2 0-24 10.8-24 24v80c0 13.2 10.8 24 24 24h80c13.2 0 24-10.8 24-24v-80c0-13.2-10.8-24-24-24zM512 408.003v80c0 13.2-10.8 24-24 24h-80c-13.2 0-24-10.8-24-24v-80c0-13.2 10.8-24 24-24h80c13.2 0 24 10.8 24 24zM704 408.003v80c0 13.2-10.8 24-24 24h-80c-13.2 0-24-10.8-24-24v-80c0-13.2 10.8-24 24-24h80c13.2 0 24 10.8 24 24zM512 216.003v80c0 13.2-10.8 24-24 24h-80c-13.2 0-24-10.8-24-24v-80c0-13.2 10.8-24 24-24h80c13.2 0 24 10.8 24 24zM320 216.003v80c0 13.2-10.8 24-24 24h-80c-13.2 0-24-10.8-24-24v-80c0-13.2 10.8-24 24-24h80c13.2 0 24 10.8 24 24zM704 216.003v80c0 13.2-10.8 24-24 24h-80c-13.2 0-24-10.8-24-24v-80c0-13.2 10.8-24 24-24h80c13.2 0 24 10.8 24 24zM896 736.003v-704c0-53-43-96-96-96h-704c-53 0-96 43-96 96v704c0 53 43 96 96 96h96v104c0 13.2 10.8 24 24 24h80c13.2 0 24-10.8 24-24v-104h256v104c0 13.2 10.8 24 24 24h80c13.2 0 24-10.8 24-24v-104h96c53 0 96-43 96-96zM800 44.003v596h-704v-596c0-6.6 5.4-12 12-12h680c6.6 0 12 5.4 12 12z" />
<glyph unicode="&#xe904;" glyph-name="audio" d="M860.9 891.1h-691.4c-55.8 0-101.1-45.3-101.1-101.1v-685.4c0-55.8 45.3-101.1 101.1-101.1h691.4c55.8 0 101.1 45.3 101.1 101.1v685.4c0 55.8-45.3 101.1-101.1 101.1zM920.7 112.4c0-36-29.2-65.2-65.2-65.2h-677.9c-36 0-65.2 29.2-65.2 65.2v672.5c0 36 29.2 65.2 65.2 65.2h677.9c36 0 65.2-29.2 65.2-65.2v-672.5zM639 231c0-32.2-38.9-48.3-61.7-25.6l-107 108.4h-84.4c-20 0-36.2 16.2-36.2 36.2v168.8c0 20 16.2 36.2 36.2 36.2h84.4l107 111.3c22.8 22.8 61.7 6.6 61.7-25.6v-409.7z" />
<glyph unicode="&#xe905;" glyph-name="icon-move" d="M575.488 770.528v-258.016h256v128l192.512-192.512-192.512-192.48v130.976h-256v-258.016h128.992l-192.48-192.48-192.512 192.48h128v258.016h-256v-129.984l-191.488 191.488 191.488 191.488v-126.976h256v258.016h-124.992l189.504 189.472 189.504-189.472h-126.016z" />
<glyph unicode="&#xe913;" glyph-name="video" d="M0 832v-768h1024v768h-1024zM192 128h-128v128h128v-128zM192 384h-128v128h128v-128zM192 640h-128v128h128v-128zM768 128h-512v640h512v-640zM960 128h-128v128h128v-128zM960 384h-128v128h128v-128zM960 640h-128v128h128v-128zM384 640v-384l256 192z" />
<glyph unicode="&#xe941;" glyph-name="dynamic-data" horiz-adv-x="896" d="M896 813.714v-91.428c0-80.572-200.666-146.286-448-146.286s-448 65.714-448 146.286v91.428c0 80.572 200.666 146.286 448 146.286s448-65.714 448-146.286zM896 608v-205.714c0-80.572-200.666-146.286-448-146.286s-448 65.714-448 146.286v205.714c96.25-66.286 272.416-97.144 448-97.144s351.748 30.858 448 97.144zM896 288v-205.714c0-80.572-200.666-146.286-448-146.286s-448 65.714-448 146.286v205.714c96.25-66.286 272.416-97.144 448-97.144s351.748 30.858 448 97.144z" />
<glyph unicode="&#xe942;" glyph-name="gradient-fill" horiz-adv-x="952" d="M844.8 755.7h-738.1c-57.9 0-105.2-47.3-105.2-105.2v-403.8c0-57.9 47.3-105.2 105.2-105.2h738.1c57.9 0 105.2 47.3 105.2 105.2v403.8c0 57.8-47.3 105.2-105.2 105.2zM80.9 248.9v370.6c0 28.9 23.7 52.6 52.6 52.6h717.5l-770.1-423.2z" />
<glyph unicode="&#xe943;" glyph-name="fill-drip-solid" horiz-adv-x="1152" d="M1024 320s-128-185.3-128-256c0-70.7 57.32-128 128-128s128 57.3 128 128-128 256-128 256zM1005.26 525.88l-415.38 415.38c-12.5 12.5-28.88 18.74-45.26 18.74s-32.76-6.24-45.24-18.74l-163.16-163.16-172.36 172.38c-12.5 12.5-32.76 12.5-45.24 0l-45.24-45.24c-12.48-12.5-12.48-32.76 0-45.24l172.38-172.36-189.52-189.52c-74.98-74.96-74.98-196.52 0-271.5l234.38-234.38c37.48-37.48 86.62-56.24 135.74-56.24 49.14 0 98.26 18.74 135.74 56.24l443.14 443.14c25 25 25 65.5 0.020 90.5zM772.82 383.94h-640.96c2.72 7.68 7.14 15.96 14.86 23.66l189.52 189.52 117.2-117.2c24.98-24.98 65.5-24.98 90.48 0s24.98 65.5 0 90.48l-117.2 117.2 117.9 117.9 324.88-324.88-96.68-96.68z" />
<glyph unicode="&#xe945;" glyph-name="hover-state" d="M618.732-38.577l379.649 230.192c16.748 10.164 26.565 28.644 25.526 48.279-0.693 13.283-3.35 31.070-9.818 54.401-20.097 72.881-60.753 235.39-119.312 333.103-43.197 71.957-91.592 150.843-114.114 187.341-15.362 24.833-38.693 44.006-66.413 53.13-32.571 10.857-76.692 10.857-122.892-32.456 0 0-97.944 50.127-160.776-26.681 0 0-113.999 36.152-148.071-31.070l-43.197 65.373c-13.514 20.444-29.106 39.501-46.431 56.942-8.778 8.894-15.015 16.055-24.833 25.179-19.982 18.827-42.389 20.906-72.303 11.319-17.441-5.66-33.264-16.979-47.471-28.529-36.96-30.146-46.316-82.929-22.407-124.163l230.192-396.397-109.032 33.957c-12.128 3.812-24.833 5.429-37.538 4.851-31.185-1.617-83.391-13.514-104.528-73.112 0 0-29.222-88.704 54.285-134.558 0 0 393.972-185.955 504.505-256.642 16.979-10.395 38.115-10.626 54.978-0.462z" />
<glyph unicode="&#xe946;" glyph-name="regular-state" d="M911.589 551.754l-758.524 403.705c-27.867 14.894-60.538-9.249-55.373-41.079l141.135-861.943c4.564-27.266 39.758-33.872 53.331-10.21l117.592 204.195c13.573 23.783 46.845 25.344 62.46 2.763l185.457-264.493c17.777-25.344 43.602-41.319 71.348-46.725l0.601-0.601 0.601 0.48c29.788-5.405 61.979 1.081 88.404 21.14v0c49.968 38.076 60.778 109.785 24.383 161.434l-185.817 264.252c-16.215 22.942-4.084 55.133 22.942 61.379l224.614 51.409c25.705 6.126 30.269 41.68 6.847 54.292z" />
<glyph unicode="&#xf002;" glyph-name="search" horiz-adv-x="952" d="M0 484.571q0 81.714 31.714 156.286t85.714 128.572 128.57 85.714 156.286 31.714 156.286-31.714 128.572-85.714 85.714-128.572 31.714-156.286q0-125.714-70.856-228l196-196q21.144-21.144 21.144-51.428 0-29.714-21.714-51.428t-51.428-21.714q-30.856 0-51.428 21.714l-196 195.428q-102.286-70.856-228-70.856-81.714 0-156.286 31.714t-128.57 85.714-85.714 128.572-31.714 156.286zM146.286 484.571q0-105.714 75.144-180.856t180.856-75.144 180.858 75.144 75.144 180.856-75.144 180.856-180.856 75.142-180.856-75.142-75.144-180.856z" />
<glyph unicode="&#xf003;" glyph-name="envelope" d="M0 100.571v621.714q0 37.714 26.856 64.57t64.57 26.858h841.144q37.714 0 64.572-26.858t26.856-64.57v-621.714q0-37.714-26.856-64.572t-64.572-26.856h-841.144q-37.714 0-64.57 26.856t-26.856 64.572zM73.144 100.571q0-7.428 5.43-12.856t12.856-5.428h841.144q7.428 0 12.856 5.428t5.428 12.856v438.856q-18.286-20.572-39.428-37.714-153.144-117.714-243.428-193.144-29.144-24.572-47.428-38.286t-49.428-27.714-58.572-14h-1.142q-27.428 0-58.57 14t-49.428 27.714-47.428 38.286q-90.286 75.428-243.43 193.144-21.144 17.144-39.43 37.714v-438.856zM73.144 722.287q0-96 84-162.286 110.286-86.856 229.144-181.144 3.428-2.856 20-16.856t26.286-21.428 25.428-18 28.856-15.714 24.572-5.144h1.144q11.428 0 24.572 5.144t28.856 15.714 25.428 18 26.286 21.428 20 16.856q118.856 94.286 229.144 181.144 30.856 24.572 57.428 66t26.572 75.144v14t-0.286 7.428-1.714 7.144-3.144 5.142-5.144 4.286-8 1.428h-841.144q-7.43 0-12.856-5.428t-5.43-12.856z" />
<glyph unicode="&#xf014;" glyph-name="trash-o" horiz-adv-x="806" d="M0 685.715v36.572q0 8 5.142 13.144t13.144 5.142h176.57l40 95.43q8.57 21.144 30.856 36t45.142 14.856h182.856q22.856 0 45.144-14.856t30.856-36l40-95.43h176.572q8 0 13.144-5.142t5.144-13.144v-36.572q0-8-5.144-13.142t-13.144-5.144h-54.856v-541.714q0-47.428-26.856-82t-64.572-34.572h-475.428q-37.714 0-64.57 33.428t-26.856 80.856v544h-54.856q-8 0-13.144 5.142t-5.142 13.144zM146.286 125.715q0-12.572 4-23.144t8.286-15.428 6-4.856h475.428q1.714 0 6 4.856t8.286 15.428 4 23.144v541.714h-512v-541.714zM219.43 210.287v329.142q0 8 5.144 13.144t13.144 5.142h36.57q8 0 13.142-5.142t5.142-13.144v-329.144q0-8-5.142-13.144t-13.144-5.144h-36.57q-8 0-13.144 5.144t-5.144 13.144zM274.286 740.571h256l-27.428 66.858q-4 5.142-9.714 6.286h-181.142q-5.714-1.144-9.714-6.286zM365.714 210.287v329.142q0 8 5.142 13.144t13.144 5.142h36.572q8 0 13.144-5.142t5.142-13.144v-329.144q0-8-5.142-13.144t-13.144-5.144h-36.572q-8 0-13.144 5.144t-5.142 13.144zM512 210.287v329.142q0 8 5.144 13.144t13.144 5.142h36.572q8 0 13.144-5.142t5.144-13.144v-329.144q0-8-5.144-13.144t-13.144-5.144h-36.572q-8 0-13.144 5.144t-5.144 13.144z" />
<glyph unicode="&#xf065;" glyph-name="expand" d="M503.326 341.338c0-5.333-2.667-11.332-6.666-15.333l-221.322-221.322 95.996-95.996c7.999-7.999 12.666-18.666 12.666-29.998 0-23.332-19.332-42.664-42.664-42.664h-298.652c-23.332 0-42.664 19.332-42.664 42.664v298.652c0 23.332 19.332 42.664 42.664 42.664 11.332 0 21.999-4.666 29.998-12.666l95.996-95.996 221.322 221.322c4 4 9.999 6.666 15.333 6.666s11.332-2.667 15.333-6.666l75.996-75.996c4-4 6.666-9.999 6.666-15.333zM1023.967 917.311v-298.652c0-23.332-19.332-42.664-42.664-42.664-11.332 0-21.999 4.666-29.998 12.666l-95.996 95.996-221.322-221.322c-4-4-9.999-6.666-15.333-6.666s-11.332 2.667-15.333 6.666l-75.996 75.996c-4 4-6.666 9.999-6.666 15.333s2.667 11.332 6.666 15.333l221.322 221.322-95.996 95.996c-7.999 7.999-12.666 18.666-12.666 29.998 0 23.332 19.332 42.664 42.664 42.664h298.652c23.332 0 42.664-19.332 42.664-42.664z" />
<glyph unicode="&#xf066;" glyph-name="compress" d="M511.992 404.601v-303.794c0-23.734-19.665-43.399-43.399-43.399-11.528 0-22.378 4.747-30.515 12.884l-97.649 97.649-225.133-225.133c-4.069-4.069-10.171-6.781-15.597-6.781s-11.528 2.713-15.597 6.781l-77.305 77.305c-4.069 4.069-6.781 10.171-6.781 15.597s2.713 11.528 6.781 15.597l225.133 225.133-97.649 97.649c-8.137 8.137-12.884 18.987-12.884 30.515 0 23.734 19.665 43.399 43.399 43.399h303.794c23.734 0 43.399-19.665 43.399-43.399zM1023.967 860.293c0-5.424-2.713-11.528-6.781-15.597l-225.133-225.133 97.649-97.649c8.137-8.137 12.884-18.987 12.884-30.515 0-23.734-19.665-43.399-43.399-43.399h-303.794c-23.734 0-43.399 19.665-43.399 43.399v303.794c0 23.734 19.665 43.399 43.399 43.399 11.528 0 22.378-4.747 30.515-12.884l97.649-97.649 225.133 225.133c4.069 4.069 10.171 6.781 15.597 6.781s11.528-2.713 15.597-6.781l77.305-77.305c4.069-4.069 6.781-10.171 6.781-15.597z" />
<glyph unicode="&#xf067;" glyph-name="plus" horiz-adv-x="806" d="M0 429.715v109.714q0 22.858 16 38.858t38.856 16h237.714v237.714q0 22.856 16 38.856t38.856 16h109.714q22.858 0 38.858-16t16-38.856v-237.714h237.714q22.856 0 38.856-16t16-38.856v-109.714q0-22.856-16-38.856t-38.856-16h-237.714v-237.714q0-22.856-16-38.856t-38.858-16h-109.714q-22.858 0-38.858 16t-16 38.856v237.714h-237.714q-22.856 0-38.856 16t-16 38.856z" />
<glyph unicode="&#xf071;" glyph-name="exclamation-triangle" d="M585.152 137.681v108.584c0 10.287-8.001 18.859-18.288 18.859h-109.727c-10.287 0-18.288-8.572-18.288-18.859v-108.584c0-10.287 8.001-18.859 18.288-18.859h109.727c10.287 0 18.288 8.572 18.288 18.859zM584.009 351.42l10.287 262.317c0 3.43-1.714 8.001-5.715 10.858-3.43 2.857-8.572 6.287-13.716 6.287h-125.729c-5.144 0-10.287-3.43-13.716-6.287-4-2.857-5.715-8.572-5.715-12.001l9.715-261.174c0-7.43 8.572-13.144 19.431-13.144h105.727c10.287 0 18.859 5.715 19.431 13.144zM576.008 885.197l438.909-804.666c12.573-22.289 12.001-49.72-1.143-72.009s-37.147-36.004-62.865-36.004h-877.818c-25.717 0-49.72 13.716-62.865 36.004s-13.716 49.72-1.143 72.009l438.909 804.666c12.573 23.432 37.147 38.29 64.008 38.29s51.435-14.859 64.008-38.29z" />
<glyph unicode="&#xf07d;" glyph-name="arrows-v" d="M694.846 777.136c0-19.999-16.57-36.569-36.569-36.569h-73.14v-585.117h73.14c19.999 0 36.569-16.57 36.569-36.569 0-9.714-4-18.856-10.857-25.713l-146.28-146.28c-6.857-6.857-15.999-10.857-25.713-10.857s-18.856 4-25.713 10.857l-146.28 146.28c-6.857 6.857-10.857 15.999-10.857 25.713 0 19.999 16.57 36.569 36.569 36.569h73.14v585.117h-73.14c-19.999 0-36.569 16.57-36.569 36.569 0 9.714 4 18.856 10.857 25.713l146.28 146.28c6.857 6.857 15.999 10.857 25.713 10.857s18.856-4 25.713-10.857l146.28-146.28c6.857-6.857 10.857-15.999 10.857-25.713z" />
<glyph unicode="&#xf080;" glyph-name="bar-chart" d="M319.999 448.003v-256h-128v256h128zM512 704.003v-512h-128v512h128zM1024 128.004v-64h-1024v768h64v-703.999h960zM703.999 576.003v-384h-128v384h128zM896 768.003v-576h-128v576h128z" />
<glyph unicode="&#xf08a;" glyph-name="socialmedia" d="M0 619.429q0 125.714 72.57 196.572t200.57 70.856q35.43 0 72.286-12.286t68.572-33.144 54.572-39.142 43.428-38.858q20.572 20.572 43.428 38.858t54.572 39.142 68.572 33.144 72.286 12.286q128 0 200.572-70.856t72.572-196.572q0-126.286-130.856-257.142l-356-342.856q-10.286-10.286-25.144-10.286t-25.144 10.286l-356.572 344q-5.714 4.572-15.714 14.856t-31.714 37.428-38.856 55.714-30.572 69.144-13.43 78.856zM73.144 619.429q0-96 106.856-202.856l332-320 331.428 319.428q107.428 107.428 107.428 203.428 0 46.286-12.286 81.714t-31.428 56.286-46.572 34-53.714 17.714-56 4.572-64-14.572-63.144-36.572-49.428-41.142-34.286-35.144q-10.286-12.572-28-12.572t-28 12.572q-13.714 16-34.286 35.142t-49.43 41.144-63.144 36.572-64 14.572-56-4.572-53.714-17.714-46.57-34-31.43-56.286-12.286-81.714z" />
<glyph unicode="&#xf08e;" glyph-name="external-link" d="M0 246.857v475.428q0 68 48.286 116.286t116.286 48.286h402.286q8 0 13.144-5.144t5.144-13.144v-36.57q0-8-5.144-13.144t-13.144-5.144h-402.286q-37.714 0-64.57-26.856t-26.856-64.572v-475.428q0-37.714 26.856-64.572t64.57-26.856h475.43q37.714 0 64.572 26.856t26.856 64.572v182.856q0 8 5.144 13.144t13.144 5.142h36.572q8 0 13.144-5.142t5.144-13.144v-182.856q0-68-48.286-116.286t-116.286-48.286h-475.428q-68 0-116.286 48.286t-48.286 116.286zM391.428 411.429q0 7.428 5.714 13.144l372.57 372.572-100.572 100.57q-10.856 10.858-10.856 25.714t10.856 25.714 25.714 10.856h292.572q14.856 0 25.714-10.856t10.856-25.714v-292.572q0-14.856-10.856-25.714t-25.714-10.856-25.714 10.856l-100.572 100.572-372.572-372.572q-5.714-5.714-13.144-5.714t-13.144 5.714l-65.144 65.144q-5.714 5.714-5.714 13.144z" />
<glyph unicode="&#xf0ac;" glyph-name="globe" d="M512 960.003c282.667 0 512-229.333 512-512s-229.333-512-512-512-512 229.333-512 512 229.333 512 512 512zM694.668 612.67c-5.333-4.001-8.667-11.333-15.334-12.667 3.333 0.666 6.666 12.667 8.667 15.334 4.001 4.667 9.333 7.334 14.666 10 11.333 4.667 22.667 6 34.666 8 11.333 2.667 25.333 2.667 34-7.334-2 2 14 16 16 16.667 6 3.333 16 2 20 8 1.334 2 1.334 14.666 1.334 14.666-11.333-1.334-15.334 9.333-16 18.667 0-0.666-1.334-2.667-4.001-5.333 0.666 10-12 2.667-16.667 4.001-15.334 4.001-13.334 14.666-18.001 26-2.667 6-10 8-12.667 14-2.667 4.001-4.001 12.667-10 13.334-4.001 0.666-11.333-14-12.667-13.334-6 3.333-8.667-1.334-13.334-4.001-4.001-2.667-7.334-1.334-11.333-3.333 12 4.001-5.333 10.667-11.333 9.333 9.333 2.667 4.667 12.667-0.666 17.333h3.333c-1.334 6-20 11.333-26 15.334s-38 10.667-44.667 6.666c-8-4.667 2-18.001 2-24.667 0.666-8-8-10-8-16.667 0-11.333 21.334-9.333 16-24.667-3.333-9.333-16-11.333-21.334-18.667-5.333-6.666 0.666-18.667 6-23.333 5.333-4.001-9.333-10.667-11.333-12-11.333-5.333-20 11.333-22.667 21.334-2 7.334-2.667 16-10.667 20-4.001 1.334-16.667 3.333-19.333-0.666-4.001 10-18.001 14-27.334 17.333-13.334 4.667-24.667 4.667-38.667 2.667 4.667 0.666-1.334 21.334-12.667 18.001 3.333 6.666 2 14 3.333 20.666 1.334 5.333 4.001 10.667 8 15.334 1.334 2.667 16 18.001 11.333 18.667 11.333-1.334 24-2 33.333 7.334 6 6 8.667 16 14.666 22.667 8.667 10 19.333-2.667 28.666-3.333 13.334-0.666 12.667 14 5.333 20.666 8.667-0.666 1.334 15.334-3.333 17.333-6 2-28.666-4.001-16.667-8.667-2.667 1.334-18.667-32.001-28-15.334-2.667 3.333-4.001 17.333-10 18.001-5.333 0-8.667-6-10.667-10 3.333 8.667-18.667 14.666-23.333 15.334 10 6.666 2 14-5.333 18.001-5.333 3.333-22 6-26.667 0.666-12.667-15.334 13.334-17.333 20-21.334 2-1.334 10-6 5.333-9.333-4.001-2-16-5.333-17.333-8-4.001-6 4.667-12.667-1.334-18.667-6 6-6 16-10.667 22.667 6-7.334-24-3.333-23.333-3.333-10 0-26-6.666-33.333 3.333-1.334 2.667-1.334 18.001 2.667 14.666-6 4.667-10 9.333-14 12-22-7.334-42.666-16.667-62.666-27.334 2.667-0.666 4.667-0.666 8 0.666 5.333 2 10 5.333 15.334 8 6.666 2.667 20.666 10.667 28 4.667 0.666 1.334 2.667 2.667 3.333 3.333 4.667-5.333 9.333-10.667 13.334-16.667-5.333 2.667-14 1.334-20 0.666-4.667-1.334-12.667-2.667-14.666-8 2-3.333 4.667-8.667 3.333-12-8.667 6-15.334 16-27.334 17.333-5.333 0-10.667 0-14.666-0.666-64-35.334-118-86.667-156.667-148 2.667-2.667 5.333-4.667 8-5.333 6.666-2 0-21.334 12.667-11.333 4.001-3.333 4.667-8 2-12.667 0.666 0.666 27.334-16.667 29.334-18.001 4.667-4.001 12-8.667 14-14 1.334-4.667-2.667-10-6.666-12-0.666 1.334-10.667 11.333-12 8.667-2-3.333 0-21.334 7.334-20.666-10.667-0.666-6-42-8.667-50 0-0.666 1.334-0.666 1.334-0.666-2-8 4.667-39.333 18.001-36-8.667-2 15.334-32.667 18.667-34.666 8.667-6 18.667-10 24.667-18.667 6.666-9.333 6.666-23.333 16-30.667-2.667-8 14-17.333 13.334-28.666-1.334-0.666-2-0.666-3.333-1.334 3.333-9.333 16-9.333 20.666-18.001 2.667-5.333 0-18.001 8.667-15.334 1.334 14.666-8.667 29.334-16 41.334-4.001 6.666-8 12.667-11.333 19.333-3.333 6-4.001 13.334-6.666 20 2.667-0.666 17.333-6 16-8-5.333-13.334 21.334-36.667 28.666-45.333 2-2 17.333-22 9.333-22 8.667 0 20.666-13.334 24.667-20 6-10 4.667-22.667 8.667-33.333 4.001-13.334 22.667-19.333 33.333-25.333 9.333-4.667 17.333-11.333 26.667-14.666 14-5.333 17.333-0.666 29.334 1.334 17.333 2.667 19.333-16.667 33.333-24 8.667-4.667 27.334-11.333 36.667-7.334-4.001-1.334 14-28.666 15.334-30.667 6-8 17.333-12 24-19.999 2 1.334 4.001 3.333 4.667 6-2.667-7.334 10-21.334 16.667-20 7.334 1.334 9.333 16 9.333 21.334-13.334-6.666-25.333-1.334-32.667 12-1.334 3.333-12 22-2.667 22 12.667 0 4.001 10 2.667 19.333s-10.667 15.334-15.334 23.333c-4.001-8-17.333-6-21.334 0.666 0-2-2-5.333-2-8-3.333 0-6.666-0.666-10 0.666 1.334 8 2 18.001 4.001 26.667 3.333 12 25.333 35.334-3.333 34-10-0.666-14-4.667-17.333-13.334-3.333-8-2-15.334-11.333-19.333-6-2.667-26-1.334-32.001 2-12.667 7.334-21.334 30.667-21.334 44-0.666 18.001 8.667 34 0 50.667 4.001 3.333 8 10 12.667 13.334 4.001 2.667 8.667-2 10.667 6-2 1.334-4.667 4.001-5.333 4.001 10-4.667 28.666 6.666 37.333 0 5.333-4.001 11.333-5.333 14.666 1.334 0.666 2-4.667 10-2 15.334 2-11.333 9.333-13.334 19.333-6 4.001-4.001 14.666-2.667 22-6.666 7.334-4.667 8.667-12 17.333-2 5.333-8 6-8 8-16 2-7.334 6-26 12.667-29.334 14-8.667 10.667 14.666 9.333 22.667-0.666 0.666-0.666 22.667-1.334 22.667-21.334 4.667-13.334 21.334-1.334 32.667 2 1.334 17.333 6.666 24 12 6 5.333 13.334 14.666 10 23.333 3.333 0 6 2.667 7.334 6-2 0.666-10 7.334-11.333 6.666 4.667 2.667 4.001 6.666 1.334 10.667 6.666 4.001 3.333 11.333 10 14 7.334-10 22 1.334 14.666 9.333 6.666 9.333 22 4.667 26 13.334 10-2.667 2.667 10 8 17.333 4.667 6 12.667 6 18.667 9.333 0-0.666 16.667 9.333 11.333 10 11.333-1.334 34 10.667 16.667 20.666 2.667 6-6 8.667-12 10 4.667 1.334 10.667-1.334 14.666 1.334 8.667 6 2.667 8.667-4.667 10.667-9.333 2.667-21.334-3.333-28.666-8zM586.001 28.003c91.334 16 172.667 61.333 234 126-4.001 4.001-11.333 2.667-16.667 5.333-5.333 2-9.333 4.001-16 5.333 1.334 13.334-13.334 18.001-22.667 24.667-8.667 6.666-14 14-26.667 11.333-1.334-0.666-14.666-5.333-12-8-8.667 7.334-12.667 11.333-24 14.666-10.667 3.333-18.001 16.667-28.666 4.667-5.333-5.333-2.667-13.334-5.333-18.667-8.667 7.334 8 16 1.334 24-8 9.333-22-6-28.666-10-4.001-3.333-8.667-4.667-11.333-8.667-3.333-4.667-4.667-10.667-7.334-15.334-2 5.333-13.334 4.001-14 8 2.667-16 2.667-32.667 6-48.666 2-9.333 0-24.667-8-32.001s-18.001-15.334-19.333-26.667c-1.334-8 0.666-15.334 8-17.333 0.666-10-10.667-17.333-10-28 0-0.666 0.666-7.334 1.334-10.667z" />
<glyph unicode="&#xf0c9;" glyph-name="menu" d="M0 118.857v73.144q0 14.856 10.856 25.714t25.714 10.856h804.572q14.856 0 25.714-10.856t10.856-25.714v-73.144q0-14.856-10.856-25.714t-25.714-10.856h-804.572q-14.856 0-25.714 10.856t-10.856 25.714zM0 411.429v73.144q0 14.856 10.856 25.714t25.714 10.858h804.572q14.856 0 25.714-10.856t10.856-25.714v-73.142q0-14.856-10.856-25.714t-25.714-10.856h-804.572q-14.856 0-25.714 10.856t-10.856 25.714zM0 704.001v73.144q0 14.856 10.856 25.714t25.714 10.856h804.572q14.856 0 25.714-10.856t10.856-25.714v-73.144q0-14.856-10.856-25.714t-25.714-10.856h-804.572q-14.856 0-25.714 10.856t-10.856 25.714z" />
<glyph unicode="&#xf0d7;" glyph-name="caret-down" d="M1024 672.003c0-17-7-33-19-45l-448.001-448.001c-12-12-28-19-45-19s-33 7-45 19l-448.001 448.001c-12 12-19 28-19 45 0 35 28.999 63.999 63.999 63.999h896.001c35 0 63.999-28.999 63.999-63.999z" />
<glyph unicode="&#xf121;" glyph-name="code" horiz-adv-x="1098" d="M25.714 411.429q0 7.428 5.714 13.144l266.286 266.286q5.714 5.714 13.142 5.714t13.144-5.714l28.572-28.572q5.714-5.714 5.714-13.142t-5.714-13.144l-224.57-224.572 224.57-224.572q5.714-5.714 5.714-13.144t-5.714-13.144l-28.572-28.572q-5.714-5.714-13.144-5.714t-13.144 5.714l-266.286 266.286q-5.714 5.714-5.714 13.144zM406.858 52.571l213.142 737.714q2.286 7.428 8.856 11.144t13.428 1.428l35.428-9.714q7.428-2.286 11.144-8.856t1.428-14l-213.144-737.714q-2.286-7.428-8.856-11.144t-13.428-1.428l-35.428 9.714q-7.428 2.286-11.144 8.856t-1.428 14zM738.856 173.715q0 7.428 5.714 13.144l224.572 224.572-224.572 224.572q-5.714 5.714-5.714 13.144t5.714 13.144l28.572 28.572q5.714 5.714 13.144 5.714t13.144-5.714l266.286-266.286q5.714-5.714 5.714-13.144t-5.714-13.144l-266.286-266.286q-5.714-5.714-13.144-5.714t-13.144 5.714l-28.572 28.572q-5.714 5.714-5.714 13.144z" />
<glyph unicode="&#xf128;" glyph-name="question" d="M595.471 233.145v-137.143c0-12.571-10.286-22.857-22.857-22.857h-137.143c-12.571 0-22.857 10.286-22.857 22.857v137.143c0 12.571 10.286 22.857 22.857 22.857h137.143c12.571 0 22.857-10.286 22.857-22.857zM776.042 576.002c0-108.571-73.714-150.286-128-180.571-33.714-19.429-54.857-58.857-54.857-75.429v0c0-12.571-9.714-27.429-22.857-27.429h-137.143c-12.571 0-20.571 19.429-20.571 32v25.714c0 69.143 68.571 128.571 118.857 151.429 44 20 62.286 38.857 62.286 75.429 0 32-41.714 60.571-88 60.571-25.714 0-49.143-8-61.714-16.571-13.714-9.714-27.429-23.429-61.143-65.714-4.571-5.714-11.429-9.143-17.714-9.143-5.143 0-9.714 1.714-14.286 4.571l-93.714 71.429c-9.714 7.429-12 20-5.714 30.286 61.714 102.286 148.571 152 265.143 152 122.286 0 259.429-97.714 259.429-228.571z" />
<glyph unicode="&#xf13c;" glyph-name="css3" d="M6.858 125.143l40.57 203.428h169.714l-16.57-84 241.144-92 277.714 92 38.856 193.714h-690.286l33.144 169.714h690.856l21.714 109.144h-690.286l33.714 169.714h860l-152-761.714-459.428-152.572z" />
<glyph unicode="&#xf14c;" glyph-name="external-link-square" d="M0 173.715v548.572q0 68 48.286 116.286t116.286 48.286h548.572q68 0 116.286-48.286t48.286-116.286v-548.572q0-68-48.286-116.286t-116.286-48.286h-548.572q-68 0-116.286 48.286t-48.286 116.286zM161.144 265.143q0-14.856 10.856-25.714l58.286-58.286q10.856-10.856 25.714-10.856t25.714 10.856l305.142 305.142 82.286-82.286q10.286-10.856 25.714-10.856 6.856 0 14.286 2.856 22.286 9.714 22.286 33.714v274.286q0 14.858-10.856 25.714t-25.714 10.856h-274.286q-24 0-33.714-22.286-9.714-23.428 8-40l82.286-82.286-305.142-305.142q-10.856-10.856-10.856-25.714z" />
<glyph unicode="&#xf248;" glyph-name="object-ungroup" d="M1024 504.892h-56.889v-284.444h56.889v-170.667h-170.667v56.889h-398.222v-56.889h-170.667v170.667h56.889v56.889h-170.667v-56.889h-170.667v170.667h56.889v284.444h-56.889v170.667h170.667v-56.889h398.222v56.889h170.667v-170.667h-56.889v-56.889h170.667v56.889h170.667v-170.667zM910.223 618.669v-56.889h56.889v56.889h-56.889zM625.778 789.335v-56.889h56.889v56.889h-56.889zM56.891 789.335v-56.889h56.889v56.889h-56.889zM113.779 277.336v56.889h-56.889v-56.889h56.889zM682.667 334.225h-56.889v-56.889h56.889v56.889zM170.668 334.225h398.222v56.889h56.889v284.444h-56.889v56.889h-398.222v-56.889h-56.889v-284.444h56.889v-56.889zM398.223 106.67v56.889h-56.889v-56.889h56.889zM967.112 106.67v56.889h-56.889v-56.889h56.889zM910.223 220.448v284.444h-56.889v56.889h-170.667v-170.667h56.889v-170.667h-170.667v56.889h-170.667v-56.889h56.889v-56.889h398.222v56.889h56.889z" />
<glyph unicode="&#xf271;" glyph-name="calendar-plus-o" horiz-adv-x="950" d="M877.714 813.715q29.714 0 51.428-21.714t21.714-51.43v-731.428q0-29.714-21.714-51.428t-51.428-21.714h-804.572q-29.714 0-51.43 21.714t-21.714 51.428v731.428q0 29.714 21.714 51.428t51.43 21.714h73.144v54.856q0 37.714 26.856 64.57t64.57 26.858h36.57q37.714 0 64.57-26.858t26.856-64.57v-54.856h219.428v54.856q0 37.714 26.856 64.57t64.572 26.858h36.572q37.714 0 64.572-26.858t26.856-64.57v-54.856h73.144zM658.286 868.571v-164.57q0-8 5.144-13.144t13.144-5.144h36.572q8 0 13.144 5.144t5.144 13.144v164.57q0 8-5.144 13.144t-13.144 5.144h-36.572q-8 0-13.144-5.144t-5.144-13.144zM219.43 868.571v-164.57q0-8 5.144-13.144t13.144-5.144h36.57q8 0 13.142 5.144t5.142 13.144v164.57q0 8-5.142 13.144t-13.144 5.144h-36.57q-8 0-13.144-5.144t-5.144-13.144zM877.714 9.143v585.144h-804.572v-585.144h804.572zM512 338.287h128q8 0 13.144-5.144t5.144-13.144v-36.572q0-8-5.144-13.144t-13.144-5.144h-128v-128q0-8-5.142-13.144t-13.142-5.144h-36.572q-8 0-13.144 5.144t-5.142 13.144v128h-128q-8 0-13.142 5.144t-5.142 13.144v36.572q0 8 5.142 13.144t13.144 5.144h128v128q0 8 5.142 13.144t13.142 5.142h36.572q8 0 13.144-5.142t5.144-13.144v-128z" />
<glyph unicode="&#xf274;" glyph-name="calendar-check-o" horiz-adv-x="950" d="M744.572 409.143l-292.572-292.572q-5.714-5.144-13.144-5.144t-13.144 5.144l-164.572 164.572q-5.144 5.714-5.144 13.144t5.144 12.572l26.286 26.286q5.142 5.144 12.572 5.144t13.142-5.144l125.714-125.714 253.714 253.714q5.714 5.144 13.144 5.144t12.572-5.144l26.286-26.286q5.144-5.144 5.144-12.572t-5.144-13.144zM73.144 9.143h804.572v585.144h-804.572v-585.144zM292.572 704.001v164.57q0 8-5.142 13.144t-13.142 5.144h-36.57q-8 0-13.144-5.144t-5.144-13.144v-164.57q0-8 5.144-13.144t13.144-5.144h36.57q8 0 13.144 5.144t5.142 13.144zM731.428 704.001v164.57q0 8-5.144 13.144t-13.144 5.144h-36.572q-8 0-13.144-5.144t-5.144-13.144v-164.57q0-8 5.144-13.144t13.144-5.144h36.572q8 0 13.144 5.144t5.144 13.144zM950.856 740.571v-731.428q0-29.714-21.714-51.428t-51.428-21.714h-804.572q-29.714 0-51.43 21.714t-21.714 51.428v731.428q0 29.714 21.714 51.428t51.43 21.714h73.144v54.856q0 37.714 26.856 64.57t64.57 26.858h36.57q37.714 0 64.57-26.858t26.856-64.57v-54.856h219.428v54.856q0 37.714 26.856 64.57t64.572 26.858h36.572q37.714 0 64.572-26.858t26.856-64.57v-54.856h73.144q29.714 0 51.428-21.714t21.714-51.428z" />
</font></defs></svg>